rv_pl_sim.vcd
$date
	Mon Jan 12 13:42:35 2026
$end
$version
	Icarus Verilog
$end
$timescale
	1ps
$end
$scope module rv_pl_tb $end
$var parameter 32 ! MAX_SAME_PC $end
$var reg 1 " clk $end
$var reg 32 # last_pc [31:0] $end
$var reg 1 $ rst_n $end
$var integer 32 % cycle_cnt [31:0] $end
$var integer 32 & same_pc_count [31:0] $end
$scope function get_instr_name $end
$var reg 3 ' f3 [2:0] $end
$var reg 7 ( f7 [6:0] $end
$var reg 32 ) i [31:0] $end
$var reg 7 * op [6:0] $end
$upscope $end
$scope module dut $end
$var wire 1 " clk $end
$var wire 1 $ rst_n $end
$var wire 1 + ZeroE $end
$var wire 1 , W_we_rf $end
$var wire 2 - W_sel_result [1:0] $end
$var wire 5 . W_rf_a3 [4:0] $end
$var wire 32 / W_result [31:0] $end
$var wire 1 0 M_we_rf $end
$var wire 1 1 M_we_dm $end
$var wire 32 2 M_rf_wd [31:0] $end
$var wire 5 3 M_rf_a3 [4:0] $end
$var wire 32 4 M_dm_rd [31:0] $end
$var wire 32 5 M_alu_o [31:0] $end
$var wire 1 6 F_stall $end
$var wire 32 7 F_pc [31:0] $end
$var wire 32 8 F_instr [31:0] $end
$var wire 2 9 E_sel_result [1:0] $end
$var wire 1 : E_sel_alu_src_b $end
$var wire 5 ; E_rf_a3 [4:0] $end
$var wire 5 < E_rf_a2 [4:0] $end
$var wire 5 = E_rf_a1 [4:0] $end
$var wire 1 > E_pcsrc $end
$var wire 1 ? E_flush $end
$var wire 2 @ E_fd_B [1:0] $end
$var wire 2 A E_fd_A [1:0] $end
$var wire 4 B E_alu_control [3:0] $end
$var wire 1 C D_stall $end
$var wire 3 D D_sel_ext [2:0] $end
$var wire 32 E D_rf_rd2 [31:0] $end
$var wire 32 F D_rf_rd1 [31:0] $end
$var wire 5 G D_rf_a2 [4:0] $end
$var wire 5 H D_rf_a1 [4:0] $end
$var wire 32 I D_instr [31:0] $end
$var wire 1 J D_flush $end
$scope module DMEM $end
$var wire 1 " clk $end
$var wire 1 $ rst_n $end
$var wire 1 1 WE $end
$var wire 32 K WD [31:0] $end
$var wire 32 L RD [31:0] $end
$var wire 32 M A [31:0] $end
$var parameter 32 N MEM_DEPTH $end
$upscope $end
$scope module IMEM $end
$var wire 32 O RD [31:0] $end
$var wire 1 $ rst_n $end
$var wire 32 P A [31:0] $end
$var parameter 32 Q MEM_DEPTH $end
$upscope $end
$scope module RF $end
$var wire 1 R clk $end
$var wire 1 $ rst_n $end
$var wire 1 , WE $end
$var wire 32 S WD [31:0] $end
$var wire 32 T RD2 [31:0] $end
$var wire 32 U RD1 [31:0] $end
$var wire 5 V A3 [4:0] $end
$var wire 5 W A2 [4:0] $end
$var wire 5 X A1 [4:0] $end
$var integer 32 Y i [31:0] $end
$upscope $end
$scope module controller_inst $end
$var wire 1 > E_pcsrc $end
$var wire 1 " clk $end
$var wire 3 Z funct3 [2:0] $end
$var wire 7 [ funct7 [6:0] $end
$var wire 7 \ op [6:0] $end
$var wire 1 $ rst_n $end
$var wire 1 + ZeroE $end
$var wire 1 , W_we_rf $end
$var wire 2 ] W_sel_result [1:0] $end
$var wire 1 0 M_we_rf $end
$var wire 1 1 M_we_dm $end
$var wire 2 ^ M_sel_res_mid [1:0] $end
$var wire 1 _ E_we_rf $end
$var wire 1 ` E_we_dm $end
$var wire 2 a E_sel_result [1:0] $end
$var wire 1 : E_sel_alu_src_b $end
$var wire 1 b E_jump $end
$var wire 1 ? E_flush $end
$var wire 1 c E_branch $end
$var wire 4 d E_alu_control [3:0] $end
$var wire 1 e D_we_rf $end
$var wire 1 f D_we_dm $end
$var wire 2 g D_sel_result [1:0] $end
$var wire 3 h D_sel_ext [2:0] $end
$var wire 1 i D_sel_alu_src_b $end
$var wire 1 j D_jump $end
$var wire 1 k D_branch $end
$var wire 4 l D_alu_control [3:0] $end
$var wire 2 m ALUOp [1:0] $end
$scope module ALUConE_reg $end
$var wire 1 " clk $end
$var wire 1 $ rst_n $end
$var wire 4 n d [3:0] $end
$var wire 1 ? clr $end
$var parameter 32 o WIDTH $end
$var reg 4 p q [3:0] $end
$upscope $end
$scope module ASrcE_reg $end
$var wire 1 " clk $end
$var wire 1 $ rst_n $end
$var wire 1 i d $end
$var wire 1 ? clr $end
$var parameter 32 q WIDTH $end
$var reg 1 : q $end
$upscope $end
$scope module BE_reg $end
$var wire 1 " clk $end
$var wire 1 $ rst_n $end
$var wire 1 k d $end
$var wire 1 ? clr $end
$var parameter 32 r WIDTH $end
$var reg 1 c q $end
$upscope $end
$scope module JE_reg $end
$var wire 1 " clk $end
$var wire 1 $ rst_n $end
$var wire 1 j d $end
$var wire 1 ? clr $end
$var parameter 32 s WIDTH $end
$var reg 1 b q $end
$upscope $end
$scope module MWE_reg $end
$var wire 1 " clk $end
$var wire 1 $ rst_n $end
$var wire 1 f d $end
$var wire 1 ? clr $end
$var parameter 32 t WIDTH $end
$var reg 1 ` q $end
$upscope $end
$scope module MWM_reg $end
$var wire 1 " clk $end
$var wire 1 ` d $end
$var wire 1 $ rst_n $end
$var parameter 32 u WIDTH $end
$var reg 1 1 q $end
$upscope $end
$scope module RSE_reg $end
$var wire 1 " clk $end
$var wire 1 $ rst_n $end
$var wire 2 v d [1:0] $end
$var wire 1 ? clr $end
$var parameter 32 w WIDTH $end
$var reg 2 x q [1:0] $end
$upscope $end
$scope module RSM_reg $end
$var wire 1 " clk $end
$var wire 2 y d [1:0] $end
$var wire 1 $ rst_n $end
$var parameter 32 z WIDTH $end
$var reg 2 { q [1:0] $end
$upscope $end
$scope module RSWB_reg $end
$var wire 1 " clk $end
$var wire 2 | d [1:0] $end
$var wire 1 $ rst_n $end
$var parameter 32 } WIDTH $end
$var reg 2 ~ q [1:0] $end
$upscope $end
$scope module RWE_reg $end
$var wire 1 " clk $end
$var wire 1 $ rst_n $end
$var wire 1 e d $end
$var wire 1 ? clr $end
$var parameter 32 !" WIDTH $end
$var reg 1 _ q $end
$upscope $end
$scope module RWM_reg $end
$var wire 1 " clk $end
$var wire 1 _ d $end
$var wire 1 $ rst_n $end
$var parameter 32 "" WIDTH $end
$var reg 1 0 q $end
$upscope $end
$scope module RWWB_reg $end
$var wire 1 " clk $end
$var wire 1 0 d $end
$var wire 1 $ rst_n $end
$var parameter 32 #" WIDTH $end
$var reg 1 , q $end
$upscope $end
$scope module alu_dec $end
$var wire 3 $" funct3 [2:0] $end
$var wire 1 %" funct7b5 $end
$var wire 1 &" opb5 $end
$var wire 1 '" r_sub $end
$var wire 2 (" ALUOp [1:0] $end
$var reg 4 )" alu_control [3:0] $end
$upscope $end
$scope module md $end
$var wire 7 *" Op [6:0] $end
$var reg 2 +" ALUOp [1:0] $end
$var reg 1 i ALUSrc $end
$var reg 1 k Branch $end
$var reg 3 ," ImmSrc [2:0] $end
$var reg 1 j Jump $end
$var reg 1 f MemWrite $end
$var reg 1 e RegWrite $end
$var reg 2 -" ResultSrc [1:0] $end
$upscope $end
$upscope $end
$scope module datapath_inst $end
$var wire 32 ." D_rf_rd1 [31:0] $end
$var wire 32 /" D_rf_rd2 [31:0] $end
$var wire 3 0" D_sel_ext [2:0] $end
$var wire 4 1" E_alu_control [3:0] $end
$var wire 1 > E_pcsrc $end
$var wire 1 : E_sel_alu_src_b $end
$var wire 32 2" F_instr [31:0] $end
$var wire 32 3" M_dm_rd [31:0] $end
$var wire 2 4" W_sel_result [1:0] $end
$var wire 1 , W_we_rf $end
$var wire 1 " clk $end
$var wire 1 $ rst_n $end
$var wire 1 + ZeroE $end
$var wire 5 5" W_rf_a3 [4:0] $end
$var wire 32 6" W_result [31:0] $end
$var wire 32 7" W_dm_rd [31:0] $end
$var wire 32 8" W_alu_o [31:0] $end
$var wire 32 9" W_PC_P4 [31:0] $end
$var wire 32 :" M_rf_wd [31:0] $end
$var wire 5 ;" M_rf_a3 [4:0] $end
$var wire 32 <" M_alu_o [31:0] $end
$var wire 32 =" M_PC_P4 [31:0] $end
$var wire 1 6 F_stall $end
$var wire 32 >" F_pc_next [31:0] $end
$var wire 32 ?" F_pc [31:0] $end
$var wire 32 @" F_PC_P4 [31:0] $end
$var wire 32 A" E_target_PC [31:0] $end
$var wire 32 B" E_rf_wd_fwd [31:0] $end
$var wire 32 C" E_rf_rd2 [31:0] $end
$var wire 32 D" E_rf_rd1 [31:0] $end
$var wire 5 E" E_rf_a3 [4:0] $end
$var wire 5 F" E_rf_a2 [4:0] $end
$var wire 5 G" E_rf_a1 [4:0] $end
$var wire 32 H" E_pc [31:0] $end
$var wire 32 I" E_imm_ext [31:0] $end
$var wire 1 ? E_flush $end
$var wire 2 J" E_fd_B [1:0] $end
$var wire 2 K" E_fd_A [1:0] $end
$var wire 32 L" E_alu_src_b [31:0] $end
$var wire 32 M" E_alu_src_a [31:0] $end
$var wire 32 N" E_alu_result [31:0] $end
$var wire 32 O" E_PC_P4 [31:0] $end
$var wire 1 C D_stall $end
$var wire 5 P" D_rf_a2 [4:0] $end
$var wire 5 Q" D_rf_a1 [4:0] $end
$var wire 32 R" D_pc [31:0] $end
$var wire 32 S" D_instr [31:0] $end
$var wire 32 T" D_imm_ext [31:0] $end
$var wire 1 J D_flush $end
$var wire 32 U" D_PC_P4 [31:0] $end
$scope module ALUReMflop $end
$var wire 1 " clk $end
$var wire 1 $ rst_n $end
$var wire 32 V" d [31:0] $end
$var parameter 32 W" WIDTH $end
$var reg 32 X" q [31:0] $end
$upscope $end
$scope module ALUReWBflop $end
$var wire 1 " clk $end
$var wire 32 Y" d [31:0] $end
$var wire 1 $ rst_n $end
$var parameter 32 Z" WIDTH $end
$var reg 32 [" q [31:0] $end
$upscope $end
$scope module ImmExtEflopclr $end
$var wire 1 " clk $end
$var wire 1 $ rst_n $end
$var wire 32 \" d [31:0] $end
$var wire 1 ? clr $end
$var parameter 32 ]" WIDTH $end
$var reg 32 ^" q [31:0] $end
$upscope $end
$scope module InstrDflopenclr $end
$var wire 1 " clk $end
$var wire 32 _" d [31:0] $end
$var wire 1 `" en $end
$var wire 1 $ rst_n $end
$var wire 1 J clr $end
$var parameter 32 a" WIDTH $end
$var reg 32 b" q [31:0] $end
$upscope $end
$scope module PCDflopenclr $end
$var wire 1 " clk $end
$var wire 1 c" en $end
$var wire 1 $ rst_n $end
$var wire 32 d" d [31:0] $end
$var wire 1 J clr $end
$var parameter 32 e" WIDTH $end
$var reg 32 f" q [31:0] $end
$upscope $end
$scope module PCEflopclr $end
$var wire 1 " clk $end
$var wire 32 g" d [31:0] $end
$var wire 1 $ rst_n $end
$var wire 1 ? clr $end
$var parameter 32 h" WIDTH $end
$var reg 32 i" q [31:0] $end
$upscope $end
$scope module PCPlus4Dflopenclr $end
$var wire 1 " clk $end
$var wire 32 j" d [31:0] $end
$var wire 1 k" en $end
$var wire 1 $ rst_n $end
$var wire 1 J clr $end
$var parameter 32 l" WIDTH $end
$var reg 32 m" q [31:0] $end
$upscope $end
$scope module PCPlus4Eflopclr $end
$var wire 1 " clk $end
$var wire 32 n" d [31:0] $end
$var wire 1 $ rst_n $end
$var wire 1 ? clr $end
$var parameter 32 o" WIDTH $end
$var reg 32 p" q [31:0] $end
$upscope $end
$scope module PCPlus4Mflop $end
$var wire 1 " clk $end
$var wire 32 q" d [31:0] $end
$var wire 1 $ rst_n $end
$var parameter 32 r" WIDTH $end
$var reg 32 s" q [31:0] $end
$upscope $end
$scope module PCPlus4Wflop $end
$var wire 1 " clk $end
$var wire 32 t" d [31:0] $end
$var wire 1 $ rst_n $end
$var parameter 32 u" WIDTH $end
$var reg 32 v" q [31:0] $end
$upscope $end
$scope module RD1Eflopclr $end
$var wire 1 " clk $end
$var wire 32 w" d [31:0] $end
$var wire 1 $ rst_n $end
$var wire 1 ? clr $end
$var parameter 32 x" WIDTH $end
$var reg 32 y" q [31:0] $end
$upscope $end
$scope module RD2Eflopclr $end
$var wire 1 " clk $end
$var wire 32 z" d [31:0] $end
$var wire 1 $ rst_n $end
$var wire 1 ? clr $end
$var parameter 32 {" WIDTH $end
$var reg 32 |" q [31:0] $end
$upscope $end
$scope module RdEflopclr $end
$var wire 1 " clk $end
$var wire 5 }" d [4:0] $end
$var wire 1 $ rst_n $end
$var wire 1 ? clr $end
$var parameter 32 ~" WIDTH $end
$var reg 5 !# q [4:0] $end
$upscope $end
$scope module RdMflop $end
$var wire 1 " clk $end
$var wire 5 "# d [4:0] $end
$var wire 1 $ rst_n $end
$var parameter 32 ## WIDTH $end
$var reg 5 $# q [4:0] $end
$upscope $end
$scope module RdWflop $end
$var wire 1 " clk $end
$var wire 5 %# d [4:0] $end
$var wire 1 $ rst_n $end
$var parameter 32 &# WIDTH $end
$var reg 5 '# q [4:0] $end
$upscope $end
$scope module ResultWMux $end
$var wire 32 (# d0 [31:0] $end
$var wire 32 )# d2 [31:0] $end
$var wire 2 *# s [1:0] $end
$var wire 32 +# y [31:0] $end
$var wire 32 ,# d1 [31:0] $end
$var parameter 32 -# WIDTH $end
$upscope $end
$scope module Rs1Eflopclr $end
$var wire 1 " clk $end
$var wire 5 .# d [4:0] $end
$var wire 1 $ rst_n $end
$var wire 1 ? clr $end
$var parameter 32 /# WIDTH $end
$var reg 5 0# q [4:0] $end
$upscope $end
$scope module Rs2Eflopclr $end
$var wire 1 " clk $end
$var wire 5 1# d [4:0] $end
$var wire 1 $ rst_n $end
$var wire 1 ? clr $end
$var parameter 32 2# WIDTH $end
$var reg 5 3# q [4:0] $end
$upscope $end
$scope module SrcAEMux $end
$var wire 32 4# d0 [31:0] $end
$var wire 32 5# d1 [31:0] $end
$var wire 32 6# d2 [31:0] $end
$var wire 32 7# y [31:0] $end
$var wire 2 8# s [1:0] $end
$var parameter 32 9# WIDTH $end
$upscope $end
$scope module SrcBEmux $end
$var wire 32 :# d1 [31:0] $end
$var wire 1 : s $end
$var wire 32 ;# y [31:0] $end
$var wire 32 <# d0 [31:0] $end
$var parameter 32 =# WIDTH $end
$upscope $end
$scope module WDEMux $end
$var wire 32 ># d0 [31:0] $end
$var wire 32 ?# d1 [31:0] $end
$var wire 32 @# d2 [31:0] $end
$var wire 32 A# y [31:0] $end
$var wire 2 B# s [1:0] $end
$var parameter 32 C# WIDTH $end
$upscope $end
$scope module WMMflop $end
$var wire 1 " clk $end
$var wire 32 D# d [31:0] $end
$var wire 1 $ rst_n $end
$var parameter 32 E# WIDTH $end
$var reg 32 F# q [31:0] $end
$upscope $end
$scope module alu_inst $end
$var wire 32 G# A [31:0] $end
$var wire 32 H# B [31:0] $end
$var wire 32 I# Result [31:0] $end
$var wire 4 J# alu_control [3:0] $end
$var wire 1 + Zero $end
$var reg 32 K# res [31:0] $end
$upscope $end
$scope module ext $end
$var wire 32 L# Ins [31:0] $end
$var wire 3 M# sel_ext [2:0] $end
$var reg 32 N# ImmExt [31:0] $end
$upscope $end
$scope module pcfflopen $end
$var wire 1 " clk $end
$var wire 1 O# en $end
$var wire 1 $ rst_n $end
$var wire 32 P# d [31:0] $end
$var parameter 32 Q# WIDTH $end
$var reg 32 R# q [31:0] $end
$upscope $end
$scope module pcfmux $end
$var wire 32 S# d0 [31:0] $end
$var wire 32 T# d1 [31:0] $end
$var wire 1 > s $end
$var wire 32 U# y [31:0] $end
$var parameter 32 V# WIDTH $end
$upscope $end
$scope module rdWflop $end
$var wire 1 " clk $end
$var wire 32 W# d [31:0] $end
$var wire 1 $ rst_n $end
$var parameter 32 X# WIDTH $end
$var reg 32 Y# q [31:0] $end
$upscope $end
$upscope $end
$scope module hazard_inst $end
$var wire 1 J D_flush $end
$var wire 5 Z# D_rf_a1 [4:0] $end
$var wire 5 [# D_rf_a2 [4:0] $end
$var wire 1 C D_stall $end
$var wire 1 ? E_flush $end
$var wire 1 > E_pcsrc $end
$var wire 5 \# E_rf_a1 [4:0] $end
$var wire 5 ]# E_rf_a2 [4:0] $end
$var wire 5 ^# E_rf_a3 [4:0] $end
$var wire 1 _# E_sel_result0 $end
$var wire 1 6 F_stall $end
$var wire 5 `# M_rf_a3 [4:0] $end
$var wire 1 0 M_we_rf $end
$var wire 5 a# W_rf_a3 [4:0] $end
$var wire 1 , W_we_rf $end
$var wire 1 b# lwStall $end
$var reg 2 c# E_fd_A [1:0] $end
$var reg 2 d# E_fd_B [1:0] $end
$upscope $end
$upscope $end
$upscope $end
$enddefinitions $end
$comment Show the parameter values. $end
$dumpall
b100000 X#
b100000 V#
b100000 Q#
b100000 E#
b100000 C#
b100000 =#
b100000 9#
b101 2#
b101 /#
b100000 -#
b101 &#
b101 ##
b101 ~"
b100000 {"
b100000 x"
b100000 u"
b100000 r"
b100000 o"
b100000 l"
b100000 h"
b100000 e"
b100000 a"
b100000 ]"
b100000 Z"
b100000 W"
b1 #"
b1 ""
b1 !"
b10 }
b10 z
b10 w
b1 u
b1 t
b1 s
b1 r
b1 q
b100 o
b10000000000 Q
b10000000000 N
b11 !
$end
#0
$dumpvars
b0 d#
b0 c#
0b#
b0 a#
b0 `#
0_#
b0 ^#
b0 ]#
b0 \#
b0 [#
b0 Z#
b0 Y#
b0 W#
b100 U#
b0 T#
b100 S#
b0 R#
b100 P#
1O#
b0 N#
b0 M#
b0 L#
b0 K#
b0 J#
b0 I#
b0 H#
b0 G#
b0 F#
b0 D#
b0 B#
b0 A#
b0 @#
b0 ?#
b0 >#
b0 <#
b0 ;#
b0 :#
b0 8#
b0 7#
b0 6#
b0 5#
b0 4#
b0 3#
b0 1#
b0 0#
b0 .#
b0 ,#
b0 +#
b0 *#
b0 )#
b0 (#
b0 '#
b0 %#
b0 $#
b0 "#
b0 !#
b0 }"
b0 |"
b0 z"
b0 y"
b0 w"
b0 v"
b0 t"
b0 s"
b0 q"
b0 p"
b0 n"
b0 m"
1k"
b100 j"
b0 i"
b0 g"
b0 f"
b0 d"
1c"
b0 b"
1`"
b10100000000000100010011 _"
b0 ^"
b0 \"
b0 ["
b0 Y"
b0 X"
b0 V"
b0 U"
b0 T"
b0 S"
b0 R"
b0 Q"
b0 P"
b0 O"
b0 N"
b0 M"
b0 L"
b0 K"
b0 J"
b0 I"
b0 H"
b0 G"
b0 F"
b0 E"
b0 D"
b0 C"
b0 B"
b0 A"
b100 @"
b0 ?"
b100 >"
b0 ="
b0 <"
b0 ;"
b0 :"
b0 9"
b0 8"
b0 7"
b0 6"
b0 5"
b0 4"
b0 3"
b10100000000000100010011 2"
b0 1"
b0 0"
b0 /"
b0 ."
b0 -"
b0 ,"
b0 +"
b0 *"
b100 )"
b0 ("
0'"
0&"
0%"
b0 $"
b0 ~
b0 |
b0 {
b0 y
b0 x
b0 v
b0 p
b100 n
b0 m
b100 l
0k
0j
0i
b0 h
b0 g
0f
0e
b0 d
0c
0b
b0 a
0`
0_
b0 ^
b0 ]
b0 \
b0 [
b0 Z
b100000 Y
b0 X
b0 W
b0 V
b0 U
b0 T
b0 S
1R
b0 P
b10100000000000100010011 O
b0 M
b0 L
b0 K
0J
b0 I
b0 H
b0 G
b0 F
b0 E
b0 D
0C
b0 B
b0 A
b0 @
0?
0>
b0 =
b0 <
b0 ;
0:
b0 9
b10100000000000100010011 8
b0 7
06
b0 5
b0 4
b0 3
b0 2
01
00
b0 /
b0 .
b0 -
0,
1+
bx *
bx )
bx (
bx '
b0 &
b0 %
0$
b11111111111111111111111111111111 #
0"
$end
#5000
0R
1"
#10000
b100000 Y
1R
0"
#15000
b10 m
b10 ("
b10 +"
1i
1e
b1000 >"
b1000 P#
b1000 U#
b110000000000000110010011 8
b110000000000000110010011 O
b110000000000000110010011 2"
b110000000000000110010011 _"
b101 T"
b101 \"
b101 N#
b10 }"
b101 G
b101 W
b101 P"
b101 1#
b101 [#
b10011 \
b10011 *"
b1000 @"
b1000 j"
b1000 S#
b100 7
b100 P
b100 ?"
b100 d"
b100 R#
b10100000000000100010011 I
b10100000000000100010011 S"
b10100000000000100010011 b"
b10100000000000100010011 L#
b100 U"
b100 m"
b100 n"
b100 B
b100 d
b100 p
b100 1"
b100 J#
bx 4
bx L
bx 3"
bx W#
0R
1"
1$
#20000
1R
b0 (
b0 '
b10011 *
b110000000000000110010011 )
b100 #
b1 %
0"
#25000
0+
b101 N"
b101 V"
b101 I#
b101 K#
b101 L"
b101 ;#
b101 H#
b1100 T"
b1100 \"
b1100 N#
b11 }"
b1100 G
b1100 W
b1100 P"
b1100 1#
b1100 [#
b1100 >"
b1100 P#
b1100 U#
b10010001101000101001100110111 8
b10010001101000101001100110111 O
b10010001101000101001100110111 2"
b10010001101000101001100110111 _"
1:
1_
bx 7"
bx ,#
bx Y#
b100 O"
b100 p"
b100 q"
b101 A"
b101 T#
b101 I"
b101 ^"
b101 :#
b10 ;
b10 E"
b10 !#
b10 "#
b10 ^#
b101 <
b101 F"
b101 3#
b101 ]#
b1000 U"
b1000 m"
b1000 n"
b100 R"
b100 f"
b100 g"
b110000000000000110010011 I
b110000000000000110010011 S"
b110000000000000110010011 b"
b110000000000000110010011 L#
b1100 @"
b1100 j"
b1100 S#
b1000 7
b1000 P
b1000 ?"
b1000 d"
b1000 R#
0R
1"
#30000
1R
b1001 (
b101 '
b110111 *
b10010001101000101001100110111 )
b1000 #
b10 %
0"
#35000
b1100 l
b1100 n
b1100 )"
1&"
b11 D
b11 h
b11 ,"
b11 0"
b11 M#
b11 m
b11 ("
b11 +"
1i
1e
b1100 N"
b1100 V"
b1100 I#
b1100 K#
b10000 >"
b10000 P#
b10000 U#
b11111111011100011000001110010011 8
b11111111011100011000001110010011 O
b11111111011100011000001110010011 2"
b11111111011100011000001110010011 _"
b10010001101000101000000000000 T"
b10010001101000101000000000000 \"
b10010001101000101000000000000 N#
b110 }"
b11 G
b11 W
b11 P"
b11 1#
b11 [#
b1000 H
b1000 X
b1000 Q"
b1000 .#
b1000 Z#
b1001 [
b101 Z
b101 $"
b110111 \
b110111 *"
b1100 L"
b1100 ;#
b1100 H#
b10000 @"
b10000 j"
b10000 S#
b1100 7
b1100 P
b1100 ?"
b1100 d"
b1100 R#
b10010001101000101001100110111 I
b10010001101000101001100110111 S"
b10010001101000101001100110111 b"
b10010001101000101001100110111 L#
b1000 R"
b1000 f"
b1000 g"
b1100 U"
b1100 m"
b1100 n"
b100 H"
b100 i"
b1100 <
b1100 F"
b1100 3#
b1100 ]#
b11 ;
b11 E"
b11 !#
b11 "#
b11 ^#
b10000 A"
b10000 T#
b1100 I"
b1100 ^"
b1100 :#
b1000 O"
b1000 p"
b1000 q"
b101 5
b101 M
b101 <"
b101 X"
b101 Y"
b101 6#
b101 @#
b10 3
b10 ;"
b10 $#
b10 %#
b10 `#
b100 ="
b100 s"
b100 t"
10
0R
1"
#40000
1R
b1111111 (
b0 '
b10011 *
b11111111011100011000001110010011 )
b1100 #
b11 %
0"
#45000
b1100 B"
b1100 <#
b1100 A#
b1100 D#
b101 /
b101 S
b101 6"
b101 +#
b101 5#
b101 ?#
1%"
b100 l
b100 n
b100 )"
0&"
b10 m
b10 ("
b10 +"
1i
b0 D
b0 h
b0 ,"
b0 0"
b0 M#
1e
b10010001101000101000000000000 N"
b10010001101000101000000000000 V"
b10010001101000101000000000000 I#
b10010001101000101000000000000 K#
b10010001101000101000000000000 L"
b10010001101000101000000000000 ;#
b10010001101000101000000000000 H#
b10 @
b10 J"
b10 B#
b10 d#
b11111111111111111111111111110111 T"
b11111111111111111111111111110111 \"
b11111111111111111111111111110111 N#
b111 }"
b10111 G
b10111 W
b10111 P"
b10111 1#
b10111 [#
b11 H
b11 X
b11 Q"
b11 .#
b11 Z#
b1111111 [
b0 Z
b0 $"
b10011 \
b10011 *"
b10100 >"
b10100 P#
b10100 U#
b1000111110001000110011 8
b1000111110001000110011 O
b1000111110001000110011 2"
b1000111110001000110011 _"
1,
b1100 B
b1100 d
b1100 p
b1100 1"
b1100 J#
b100 9"
b100 v"
b100 )#
b10 .
b10 V
b10 5"
b10 '#
b10 a#
b101 8"
b101 ["
b101 (#
b1000 ="
b1000 s"
b1000 t"
b11 3
b11 ;"
b11 $#
b11 %#
b11 `#
b1100 5
b1100 M
b1100 <"
b1100 X"
b1100 Y"
b1100 6#
b1100 @#
b1100 O"
b1100 p"
b1100 q"
b10010001101000101000000000000 I"
b10010001101000101000000000000 ^"
b10010001101000101000000000000 :#
b110 ;
b110 E"
b110 !#
b110 "#
b110 ^#
b11 <
b11 F"
b11 3#
b11 ]#
b1000 =
b1000 G"
b1000 0#
b1000 \#
b10010001101000101000000001000 A"
b10010001101000101000000001000 T#
b1000 H"
b1000 i"
b10000 U"
b10000 m"
b10000 n"
b1100 R"
b1100 f"
b1100 g"
b11111111011100011000001110010011 I
b11111111011100011000001110010011 S"
b11111111011100011000001110010011 b"
b11111111011100011000001110010011 L#
b10100 @"
b10100 j"
b10100 S#
b10000 7
b10000 P
b10000 ?"
b10000 d"
b10000 R#
0R
1"
#50000
1R
b0 (
b110 '
b110011 *
b1000111110001000110011 )
b10000 #
b100 %
0"
#55000
b1100 M"
b1100 7#
b1100 G#
b101 E
b101 T
b101 /"
b101 z"
0%"
b1000 l
b1000 n
b1000 )"
1&"
b10 m
b10 ("
b10 +"
0i
1e
b11 N"
b11 V"
b11 I#
b11 K#
b1100 /
b1100 S
b1100 6"
b1100 +#
b1100 5#
b1100 ?#
b11000 >"
b11000 P#
b11000 U#
b10000011111001010110011 8
b10000011111001010110011 O
b10000011111001010110011 2"
b10000011111001010110011 _"
b10 T"
b10 \"
b10 N#
b100 }"
b10 G
b10 W
b10 P"
b10 1#
b10 [#
b111 H
b111 X
b111 Q"
b111 .#
b111 Z#
b0 [
b110 Z
b110 $"
b110011 \
b110011 *"
b11111111111111111111111111110111 L"
b11111111111111111111111111110111 ;#
b11111111111111111111111111110111 H#
b0 B"
b0 <#
b0 A#
b0 D#
b0 @
b0 J"
b0 B#
b0 d#
b1 A
b1 K"
b1 8#
b1 c#
b11000 @"
b11000 j"
b11000 S#
b10100 7
b10100 P
b10100 ?"
b10100 d"
b10100 R#
b1000111110001000110011 I
b1000111110001000110011 S"
b1000111110001000110011 b"
b1000111110001000110011 L#
b10000 R"
b10000 f"
b10000 g"
b10100 U"
b10100 m"
b10100 n"
b1100 H"
b1100 i"
b11 =
b11 G"
b11 0#
b11 \#
b10111 <
b10111 F"
b10111 3#
b10111 ]#
b111 ;
b111 E"
b111 !#
b111 "#
b111 ^#
b11 A"
b11 T#
b11111111111111111111111111110111 I"
b11111111111111111111111111110111 ^"
b11111111111111111111111111110111 :#
b10000 O"
b10000 p"
b10000 q"
b10010001101000101000000000000 5
b10010001101000101000000000000 M
b10010001101000101000000000000 <"
b10010001101000101000000000000 X"
b10010001101000101000000000000 Y"
b10010001101000101000000000000 6#
b10010001101000101000000000000 @#
b1100 2
b1100 K
b1100 :"
b1100 F#
b110 3
b110 ;"
b110 $#
b110 %#
b110 `#
b1100 ="
b1100 s"
b1100 t"
b1100 8"
b1100 ["
b1100 (#
b11 .
b11 V
b11 5"
b11 '#
b11 a#
b1000 9"
b1000 v"
b1000 )#
b100 B
b100 d
b100 p
b100 1"
b100 J#
0R
1"
#60000
1R
b111 '
b10000011111001010110011 )
b10100 #
b101 %
0"
#65000
b11 M"
b11 7#
b11 G#
b10010001101000101000000000000 /
b10010001101000101000000000000 S
b10010001101000101000000000000 6"
b10010001101000101000000000000 +#
b10010001101000101000000000000 5#
b10010001101000101000000000000 ?#
b101 B"
b101 <#
b101 A#
b101 D#
b0 E
b0 T
b0 /"
b0 z"
b1100 F
b1100 U
b1100 ."
b1100 w"
b111 l
b111 n
b111 )"
b111 N"
b111 V"
b111 I#
b111 K#
b101 L"
b101 ;#
b101 H#
b10 A
b10 K"
b10 8#
b10 c#
b100 T"
b100 \"
b100 N#
b101 }"
b100 G
b100 W
b100 P"
b100 1#
b100 [#
b11 H
b11 X
b11 Q"
b11 .#
b11 Z#
b111 Z
b111 $"
b11100 >"
b11100 P#
b11100 U#
b10000101000001010110011 8
b10000101000001010110011 O
b10000101000001010110011 2"
b10000101000001010110011 _"
0:
b1000 B
b1000 d
b1000 p
b1000 1"
b1000 J#
b1100 9"
b1100 v"
b1100 )#
b110 .
b110 V
b110 5"
b110 '#
b110 a#
b10010001101000101000000000000 8"
b10010001101000101000000000000 ["
b10010001101000101000000000000 (#
b10000 ="
b10000 s"
b10000 t"
b111 3
b111 ;"
b111 $#
b111 %#
b111 `#
b0 2
b0 K
b0 :"
b0 F#
b11 5
b11 M
b11 <"
b11 X"
b11 Y"
b11 6#
b11 @#
b10100 O"
b10100 p"
b10100 q"
b10 I"
b10 ^"
b10 :#
b100 ;
b100 E"
b100 !#
b100 "#
b100 ^#
b10 <
b10 F"
b10 3#
b10 ]#
b111 =
b111 G"
b111 0#
b111 \#
b10010 A"
b10010 T#
b10000 H"
b10000 i"
b101 C"
b101 |"
b101 >#
b11000 U"
b11000 m"
b11000 n"
b10100 R"
b10100 f"
b10100 g"
b10000011111001010110011 I
b10000011111001010110011 S"
b10000011111001010110011 b"
b10000011111001010110011 L#
b11100 @"
b11100 j"
b11100 S#
b11000 7
b11000 P
b11000 ?"
b11000 d"
b11000 R#
0R
1"
#70000
1R
b0 '
b10000101000001010110011 )
b11000 #
b110 %
0"
