testbench/Controller_tb.vcd
$date
	Fri Dec  5 14:51:39 2025
$end
$version
	Icarus Verilog
$end
$timescale
	1ps
$end
$scope module Controller_tb $end
$var wire 1 ! ResultSrc $end
$var wire 1 " RegWrite_E $end
$var wire 1 # PCSrc $end
$var wire 1 $ MemWrite_E $end
$var wire 3 % ImmSrc [2:0] $end
$var wire 1 & ALUSrc $end
$var wire 4 ' ALUControl [3:0] $end
$var reg 1 ( Zero $end
$var reg 4 ) exp_ALUControl [3:0] $end
$var reg 1 * exp_ALUSrc $end
$var reg 3 + exp_ImmSrc [2:0] $end
$var reg 1 , exp_MemWrite_E $end
$var reg 1 - exp_PCSrc $end
$var reg 1 . exp_RegWrite_E $end
$var reg 1 / exp_ResultSrc $end
$var reg 3 0 funct3 [2:0] $end
$var reg 7 1 funct7 [6:0] $end
$var reg 32 2 inst [31:0] $end
$var reg 1 3 test_passed $end
$var integer 32 4 test_count [31:0] $end
$scope module uut $end
$var wire 1 ( Zero $end
$var wire 3 5 funct3 [2:0] $end
$var wire 7 6 funct7 [6:0] $end
$var wire 32 7 inst [31:0] $end
$var wire 1 ! ResultSrc $end
$var wire 1 " RegWrite_E $end
$var wire 1 # PCSrc $end
$var wire 7 8 Op [6:0] $end
$var wire 1 $ MemWrite_E $end
$var wire 3 9 ImmSrc [2:0] $end
$var wire 1 & ALUSrc $end
$var wire 3 : ALUOp [2:0] $end
$var wire 4 ; ALUControl [3:0] $end
$scope module alu_decoder $end
$var wire 3 < funct3 [2:0] $end
$var wire 7 = funct7 [6:0] $end
$var wire 7 > op [6:0] $end
$var wire 3 ? ALUOp [2:0] $end
$var reg 4 @ ALUControl [3:0] $end
$upscope $end
$scope module main_decoder $end
$var wire 1 ( Zero $end
$var wire 32 A inst [31:0] $end
$var wire 7 B Op [6:0] $end
$var wire 7 C Funct7 [6:0] $end
$var wire 3 D Funct3 [2:0] $end
$var reg 3 E ALUOp [2:0] $end
$var reg 1 & ALUSrc $end
$var reg 3 F ImmSrc [2:0] $end
$var reg 1 $ MemWrite_E $end
$var reg 1 # PCSrc $end
$var reg 1 " RegWrite_E $end
$var reg 1 ! ResultSrc $end
$upscope $end
$upscope $end
$scope task check_signals $end
$var reg 256 G test_name [255:0] $end
$upscope $end
$upscope $end
$enddefinitions $end
$comment Show the parameter values. $end
$dumpall
$end
#0
$dumpvars
bx G
b0 F
b10 E
b0 D
b0 C
b0 B
b0 A
b100 @
b10 ?
b0 >
b0 =
b0 <
b100 ;
b10 :
b0 9
b0 8
b0 7
b0 6
b0 5
b0 4
13
b0 2
b0 1
b0 0
x/
x.
x-
x,
bx +
x*
bx )
0(
b100 '
0&
b0 %
0$
0#
0"
0!
$end
#10000
b1 :
b1 ?
b1 E
1"
b110011 8
b110011 >
b110011 B
b100 )
0-
0/
0,
0*
b0 +
1.
b1000001000000110110011 2
b1000001000000110110011 7
b1000001000000110110011 A
#20000
b110 '
b110 ;
b110 @
b100000 C
b110 )
b100000 1
b100000 6
b100000 =
b1000000001000001000000110110011 2
b1000000001000001000000110110011 7
b1000000001000001000000110110011 A
b1 4
b1010010001011010111010001111001011100000110010100100000010000010100010001000100 G
#30000
b1001 '
b1001 ;
b1001 @
b100 D
b0 C
b1001 )
b0 1
b0 6
b0 =
b100 0
b100 5
b100 <
b1000001100000110110011 2
b1000001100000110110011 7
b1000001100000110110011 A
b10 4
b1010010001011010111010001111001011100000110010100100000010100110101010101000010 G
#40000
b1000 '
b1000 ;
b1000 @
b110 D
b1000 )
b110 0
b110 5
b110 <
b1000001110000110110011 2
b1000001110000110110011 7
b1000001110000110110011 A
b11 4
b1010010001011010111010001111001011100000110010100100000010110000100111101010010 G
#50000
b111 '
b111 ;
b111 @
b111 D
b111 )
b111 0
b111 5
b111 <
b1000001111000110110011 2
b1000001111000110110011 7
b1000001111000110110011 A
b100 4
b10100100010110101110100011110010111000001100101001000000100111101010010 G
#60000
b10 :
b10 ?
b10 E
1&
b100 '
b100 ;
b100 @
b10011 8
b10011 >
b10011 B
b0 D
b1001 C
b100 )
1*
b0 0
b0 5
b0 <
b10010001100001000000100010011 2
b10010001100001000000100010011 7
b10010001100001000000100010011 A
b101 4
b1010010001011010111010001111001011100000110010100100000010000010100111001000100 G
#70000
b1001 '
b1001 ;
b1001 @
b100 D
b100010 C
b1001 )
b100 0
b100 5
b100 <
b1000101011000001100000100010011 2
b1000101011000001100000100010011 7
b1000101011000001100000100010011 A
b110 4
b100100100101101011101000111100101110000011001010010000001000001010001000100010001001001 G
#80000
b1 '
b1 ;
b1 @
b1 D
b0 C
b1 )
b1 0
b1 5
b1 <
b10000001001000100010011 2
b10000001001000100010011 7
b10000001001000100010011 A
b111 4
b100100100101101011101000111100101110000011001010010000001011000010011110101001001001001 G
#90000
b0 :
b0 ?
b0 E
1!
b100 '
b100 ;
b100 @
b11 8
b11 >
b11 B
b10 D
b1000 C
b100 )
1/
b10 0
b10 5
b10 <
b10000000000001010000100000011 2
b10000000000001010000100000011 7
b10000000000001010000100000011 A
b1000 4
b100100100101101011101000111100101110000011001010010000001010011010011000100110001001001 G
#100000
1$
b1 %
b1 9
b1 F
0"
b100011 8
b100011 >
b100011 B
b1 C
1,
b1 +
0.
b10001000001010000000100011 2
b10001000001010000000100011 7
b10001000001010000000100011 A
b1001 4
b1001100011011110110000101100100001000000100110001010111 G
#110000
b1001 '
b1001 ;
b1001 @
1#
b11 :
b11 ?
b11 E
0!
0$
0&
b10 %
b10 9
b10 F
b1100011 8
b1100011 >
b1100011 B
b0 D
b0 C
b1001 )
1-
0/
0,
0*
b10 +
1(
b0 0
b0 5
b0 <
b1000001000010001100011 2
b1000001000010001100011 7
b1000001000010001100011 A
b1010 4
b101001101110100011011110111001001100101001000000101001101010111 G
#120000
0#
0-
0(
b1011 4
b1000010011100100110000101101110011000110110100000100000010000100100010101010001001000000111010001100001011010110110010101101110 G
#130000
b0 '
b0 ;
b0 @
1#
b100 :
b100 ?
b100 E
1&
b100 %
b100 9
b100 F
1"
b1101111 8
b1101111 >
b1101111 B
b10 D
b0 )
1-
1*
b100 +
1.
b100100011010001011101111 2
b100100011010001011101111 7
b100100011010001011101111 A
b1100 4
b100001001110010011000010110111001100011011010000010000001000010010001010101000100100000011011100110111101110100001000000111010001100001011010110110010101101110 G
#140000
0#
1!
b11 %
b11 9
b11 F
b110111 8
b110111 >
b110111 B
b110 D
b1010101 C
0-
1/
b11 +
b10101011110011011110000010110111 2
b10101011110011011110000010110111 7
b10101011110011011110000010110111 A
b1101 4
b100101001110101011011010111000000100000010010100100000101001100 G
#150000
b100 '
b100 ;
b100 @
b10 :
b10 ?
b10 E
0!
0&
b0 %
b0 9
b0 F
0"
b1111111 8
b1111111 >
b1111111 B
b0 D
b0 C
b100 )
0/
0*
b0 +
0.
b1111111 2
b1111111 7
b1111111 A
b1110 4
b1010101001011010111010001111001011100000110010100100000010011000101010101001001 G
#160000
b1 :
b1 ?
b1 E
1"
b111 '
b111 ;
b111 @
b110011 8
b110011 >
b110011 B
b111 D
b1111111 C
b111 )
1.
b1111111 1
b1111111 6
b1111111 =
b111 0
b111 5
b111 <
b11111110001000001111000110110011 2
b11111110001000001111000110110011 7
b11111110001000001111000110110011 A
b1111 4
b100100101101110011101100110000101101100011010010110010000100000011011110111000001100011011011110110010001100101 G
#170000
b10 '
b10 ;
b10 @
b101 D
b0 C
b10 )
b0 1
b0 6
b0 =
b101 0
b101 5
b101 <
b10000001101000100110011 2
b10000001101000100110011 7
b10000001101000100110011 A
b10000 4
b101001000101101011101000111100101110000011001010010000001110111011010010111010001101000001000000110100101101110011101100110000101101100011010010110010000100000011001100111010101101110011000110111010000110111 G
#180000
b11 '
b11 ;
b11 @
b100000 C
b11 )
b100000 1
b100000 6
b100000 =
b1000000010000001101000100110011 2
b1000000010000001101000100110011 7
b1000000010000001101000100110011 A
b10001 4
b1010010001011010111010001111001011100000110010100100000010100110101001001001100 G
#190000
b1011 '
b1011 ;
b1011 @
b10 D
b0 C
b1011 )
b0 1
b0 6
b0 =
b10 0
b10 5
b10 <
b1000001010000110110011 2
b1000001010000110110011 7
b1000001010000110110011 A
b10010 4
b1010010001011010111010001111001011100000110010100100000010100110101001001000001 G
#200000
b1010 '
b1010 ;
b1010 @
b11 D
b1010 )
b11 0
b11 5
b11 <
b1000001011000110110011 2
b1000001011000110110011 7
b1000001011000110110011 A
b10011 4
b1010010001011010111010001111001011100000110010100100000010100110100110001010100 G
#210000
b10 :
b10 ?
b10 E
1&
b1011 '
b1011 ;
b1011 @
b10011 8
b10011 >
b10011 B
b10 D
b111100 C
b1011 )
1*
b10 0
b10 5
b10 <
b1111000100100001010000100010011 2
b1111000100100001010000100010011 7
b1111000100100001010000100010011 A
b10100 4
b101001000101101011101000111100101110000011001010010000001010011010011000101010001010101 G
#220000
b1 :
b1 ?
b1 E
0&
b100 '
b100 ;
b100 @
b110011 8
b110011 >
b110011 B
b0 D
b0 C
b0 0
b0 5
b0 <
b1000001000000110110011 2
b1000001000000110110011 7
b1000001000000110110011 A
b10101 4
b100100100101101011101000111100101110000011001010010000001010011010011000101010001001001 G
#225000
b10 :
b10 ?
b10 E
1&
b10011 8
b10011 >
b10011 B
b10000 C
b100 )
b100000000000001000000100010011 2
b100000000000001000000100010011 7
b100000000000001000000100010011 A
#230000
b10110 4
b10100100010110101110100011110010111000001100101001000000111010001101111001000000100100100101101011101000111100101110000011001010010000001110100011100100110000101101110011100110110100101110100011010010110111101101110 G
