testbench/Controller_tb.vcd
$date
	Fri Dec  5 20:14:52 2025
$end
$version
	Icarus Verilog
$end
$timescale
	1ps
$end
$scope module Controller_tb $end
$var wire 1 ! ResultSrc $end
$var wire 1 " RegWrite_E $end
$var wire 1 # PCSrc $end
$var wire 1 $ MemWrite_E $end
$var wire 3 % ImmSrc [2:0] $end
$var wire 1 & ALUSrc $end
$var wire 4 ' ALUControl [3:0] $end
$var reg 1 ( Zero $end
$var reg 4 ) exp_ALUControl [3:0] $end
$var reg 1 * exp_ALUSrc $end
$var reg 3 + exp_ImmSrc [2:0] $end
$var reg 1 , exp_MemWrite_E $end
$var reg 1 - exp_PCSrc $end
$var reg 1 . exp_RegWrite_E $end
$var reg 1 / exp_ResultSrc $end
$var reg 3 0 funct3 [2:0] $end
$var reg 7 1 funct7 [6:0] $end
$var reg 32 2 inst [31:0] $end
$var reg 1 3 test_passed $end
$var integer 32 4 test_count [31:0] $end
$scope module uut $end
$var wire 1 ( Zero $end
$var wire 3 5 funct3 [2:0] $end
$var wire 7 6 funct7 [6:0] $end
$var wire 32 7 inst [31:0] $end
$var wire 3 8 ResultSrc [2:0] $end
$var wire 1 " RegWrite_E $end
$var wire 1 # PCSrc $end
$var wire 7 9 Op [6:0] $end
$var wire 1 $ MemWrite_E $end
$var wire 3 : ImmSrc [2:0] $end
$var wire 1 & ALUSrc $end
$var wire 3 ; ALUOp [2:0] $end
$var wire 4 < ALUControl [3:0] $end
$scope module alu_decoder $end
$var wire 3 = funct3 [2:0] $end
$var wire 7 > funct7 [6:0] $end
$var wire 7 ? op [6:0] $end
$var wire 3 @ ALUOp [2:0] $end
$var reg 4 A ALUControl [3:0] $end
$upscope $end
$scope module main_decoder $end
$var wire 1 ( Zero $end
$var wire 32 B inst [31:0] $end
$var wire 7 C Op [6:0] $end
$var wire 7 D Funct7 [6:0] $end
$var wire 3 E Funct3 [2:0] $end
$var reg 3 F ALUOp [2:0] $end
$var reg 1 & ALUSrc $end
$var reg 3 G ImmSrc [2:0] $end
$var reg 1 $ MemWrite_E $end
$var reg 1 # PCSrc $end
$var reg 1 " RegWrite_E $end
$var reg 3 H ResultSrc [2:0] $end
$upscope $end
$upscope $end
$scope task check_signals $end
$var reg 256 I test_name [255:0] $end
$upscope $end
$upscope $end
$enddefinitions $end
$comment Show the parameter values. $end
$dumpall
$end
#0
$dumpvars
bx I
b0 H
b0 G
b10 F
b0 E
b0 D
b0 C
b0 B
b100 A
b10 @
b0 ?
b0 >
b0 =
b100 <
b10 ;
b0 :
b0 9
b0 8
b0 7
b0 6
b0 5
b0 4
13
b0 2
b0 1
b0 0
x/
x.
x-
x,
bx +
x*
bx )
0(
b100 '
0&
b0 %
0$
0#
0"
0!
$end
#10000
b1 ;
b1 @
b1 F
1"
b110011 9
b110011 ?
b110011 C
b100 )
0-
0/
0,
0*
b0 +
1.
b1000001000000110110011 2
b1000001000000110110011 7
b1000001000000110110011 B
#20000
b110 '
b110 <
b110 A
b100000 D
b110 )
b100000 1
b100000 6
b100000 >
b1000000001000001000000110110011 2
b1000000001000001000000110110011 7
b1000000001000001000000110110011 B
b1 4
b1010010001011010111010001111001011100000110010100100000010000010100010001000100 I
#30000
b1001 '
b1001 <
b1001 A
b100 E
b0 D
b1001 )
b0 1
b0 6
b0 >
b100 0
b100 5
b100 =
b1000001100000110110011 2
b1000001100000110110011 7
b1000001100000110110011 B
b10 4
b1010010001011010111010001111001011100000110010100100000010100110101010101000010 I
#40000
b1000 '
b1000 <
b1000 A
b110 E
b1000 )
b110 0
b110 5
b110 =
b1000001110000110110011 2
b1000001110000110110011 7
b1000001110000110110011 B
b11 4
b1010010001011010111010001111001011100000110010100100000010110000100111101010010 I
#50000
b111 '
b111 <
b111 A
b111 E
b111 )
b111 0
b111 5
b111 =
b1000001111000110110011 2
b1000001111000110110011 7
b1000001111000110110011 B
b100 4
b10100100010110101110100011110010111000001100101001000000100111101010010 I
#60000
b10 ;
b10 @
b10 F
1&
b100 '
b100 <
b100 A
b10011 9
b10011 ?
b10011 C
b0 E
b1001 D
b100 )
1*
b0 0
b0 5
b0 =
b10010001100001000000100010011 2
b10010001100001000000100010011 7
b10010001100001000000100010011 B
b101 4
b1010010001011010111010001111001011100000110010100100000010000010100111001000100 I
#70000
b1001 '
b1001 <
b1001 A
b100 E
b100010 D
b1001 )
b100 0
b100 5
b100 =
b1000101011000001100000100010011 2
b1000101011000001100000100010011 7
b1000101011000001100000100010011 B
b110 4
b100100100101101011101000111100101110000011001010010000001000001010001000100010001001001 I
#80000
b1 '
b1 <
b1 A
b1 E
b0 D
b1 )
b1 0
b1 5
b1 =
b10000001001000100010011 2
b10000001001000100010011 7
b10000001001000100010011 B
b111 4
b100100100101101011101000111100101110000011001010010000001011000010011110101001001001001 I
#90000
1!
b0 ;
b0 @
b0 F
b1 8
b1 H
b100 '
b100 <
b100 A
b11 9
b11 ?
b11 C
b10 E
b1000 D
b100 )
1/
b10 0
b10 5
b10 =
b10000000000001010000100000011 2
b10000000000001010000100000011 7
b10000000000001010000100000011 B
b1000 4
b100100100101101011101000111100101110000011001010010000001010011010011000100110001001001 I
#100000
1$
b1 %
b1 :
b1 G
0"
b100011 9
b100011 ?
b100011 C
b1 D
1,
b1 +
0.
b10001000001010000000100011 2
b10001000001010000000100011 7
b10001000001010000000100011 B
b1001 4
b1001100011011110110000101100100001000000100110001010111 I
#110000
b1001 '
b1001 <
b1001 A
0!
1#
b11 ;
b11 @
b11 F
b0 8
b0 H
0$
0&
b10 %
b10 :
b10 G
b1100011 9
b1100011 ?
b1100011 C
b0 E
b0 D
b1001 )
1-
0/
0,
0*
b10 +
1(
b0 0
b0 5
b0 =
b1000001000010001100011 2
b1000001000010001100011 7
b1000001000010001100011 B
b1010 4
b101001101110100011011110111001001100101001000000101001101010111 I
#120000
0#
0-
0(
b1011 4
b1000010011100100110000101101110011000110110100000100000010000100100010101010001001000000111010001100001011010110110010101101110 I
#130000
b0 '
b0 <
b0 A
1#
b100 ;
b100 @
b100 F
b10 8
b10 H
1&
b100 %
b100 :
b100 G
1"
b1101111 9
b1101111 ?
b1101111 C
b10 E
b0 )
1-
1*
b100 +
1.
b100100011010001011101111 2
b100100011010001011101111 7
b100100011010001011101111 B
b1100 4
b100001001110010011000010110111001100011011010000010000001000010010001010101000100100000011011100110111101110100001000000111010001100001011010110110010101101110 I
#140000
1!
0#
b11 8
b11 H
b11 %
b11 :
b11 G
b110111 9
b110111 ?
b110111 C
b110 E
b1010101 D
0-
1/
b11 +
b10101011110011011110000010110111 2
b10101011110011011110000010110111 7
b10101011110011011110000010110111 B
b1101 4
b100101001110101011011010111000000100000010010100100000101001100 I
#150000
b100 '
b100 <
b100 A
0!
b10 ;
b10 @
b10 F
b0 8
b0 H
0&
b0 %
b0 :
b0 G
0"
b1111111 9
b1111111 ?
b1111111 C
b0 E
b0 D
b100 )
0/
0*
b0 +
0.
b1111111 2
b1111111 7
b1111111 B
b1110 4
b1010101001011010111010001111001011100000110010100100000010011000101010101001001 I
#160000
b1 ;
b1 @
b1 F
1"
b111 '
b111 <
b111 A
b110011 9
b110011 ?
b110011 C
b111 E
b1111111 D
b111 )
1.
b1111111 1
b1111111 6
b1111111 >
b111 0
b111 5
b111 =
b11111110001000001111000110110011 2
b11111110001000001111000110110011 7
b11111110001000001111000110110011 B
b1111 4
b100100101101110011101100110000101101100011010010110010000100000011011110111000001100011011011110110010001100101 I
#170000
b10 '
b10 <
b10 A
b101 E
b0 D
b10 )
b0 1
b0 6
b0 >
b101 0
b101 5
b101 =
b10000001101000100110011 2
b10000001101000100110011 7
b10000001101000100110011 B
b10000 4
b101001000101101011101000111100101110000011001010010000001110111011010010111010001101000001000000110100101101110011101100110000101101100011010010110010000100000011001100111010101101110011000110111010000110111 I
#180000
b11 '
b11 <
b11 A
b100000 D
b11 )
b100000 1
b100000 6
b100000 >
b1000000010000001101000100110011 2
b1000000010000001101000100110011 7
b1000000010000001101000100110011 B
b10001 4
b1010010001011010111010001111001011100000110010100100000010100110101001001001100 I
#190000
b1011 '
b1011 <
b1011 A
b10 E
b0 D
b1011 )
b0 1
b0 6
b0 >
b10 0
b10 5
b10 =
b1000001010000110110011 2
b1000001010000110110011 7
b1000001010000110110011 B
b10010 4
b1010010001011010111010001111001011100000110010100100000010100110101001001000001 I
#200000
b1010 '
b1010 <
b1010 A
b11 E
b1010 )
b11 0
b11 5
b11 =
b1000001011000110110011 2
b1000001011000110110011 7
b1000001011000110110011 B
b10011 4
b1010010001011010111010001111001011100000110010100100000010100110100110001010100 I
#210000
b10 ;
b10 @
b10 F
1&
b1011 '
b1011 <
b1011 A
b10011 9
b10011 ?
b10011 C
b10 E
b111100 D
b1011 )
1*
b10 0
b10 5
b10 =
b1111000100100001010000100010011 2
b1111000100100001010000100010011 7
b1111000100100001010000100010011 B
b10100 4
b101001000101101011101000111100101110000011001010010000001010011010011000101010001010101 I
#220000
b1 ;
b1 @
b1 F
0&
b100 '
b100 <
b100 A
b110011 9
b110011 ?
b110011 C
b0 E
b0 D
b0 0
b0 5
b0 =
b1000001000000110110011 2
b1000001000000110110011 7
b1000001000000110110011 B
b10101 4
b100100100101101011101000111100101110000011001010010000001010011010011000101010001001001 I
#225000
b10 ;
b10 @
b10 F
1&
b10011 9
b10011 ?
b10011 C
b10000 D
b100 )
b100000000000001000000100010011 2
b100000000000001000000100010011 7
b100000000000001000000100010011 B
#230000
b10110 4
b10100100010110101110100011110010111000001100101001000000111010001101111001000000100100100101101011101000111100101110000011001010010000001110100011100100110000101101110011100110110100101110100011010010110111101101110 I
