testbench/CPU_Assembly_Test_tb.vcd
$date
	Thu Dec  4 17:30:19 2025
$end
$version
	Icarus Verilog
$end
$timescale
	1ps
$end
$scope module CPU_Assembly_Test_tb $end
$var wire 32 ! reg_write_data [31:0] $end
$var wire 32 " reg_data2 [31:0] $end
$var wire 32 # reg_data1 [31:0] $end
$var wire 32 $ memory_read_data [31:0] $end
$var wire 32 % instruction [31:0] $end
$var wire 32 & immediate [31:0] $end
$var wire 1 ' Zero $end
$var wire 1 ( ResultSrc $end
$var wire 1 ) RegWrite $end
$var wire 32 * PC_next [31:0] $end
$var wire 32 + PC_current [31:0] $end
$var wire 1 , PCSrc $end
$var wire 1 - MemWrite $end
$var wire 3 . ImmSrc [2:0] $end
$var wire 32 / ALU_srcB [31:0] $end
$var wire 32 0 ALU_result [31:0] $end
$var wire 1 1 ALUSrc $end
$var wire 4 2 ALUControl [3:0] $end
$var reg 1 3 clk $end
$var reg 1 4 rst $end
$var reg 1 5 test_passed $end
$var integer 32 6 cycle_count [31:0] $end
$var integer 32 7 max_cycles [31:0] $end
$var integer 32 8 test_count [31:0] $end
$scope module alu_inst $end
$var wire 1 ' Zero $end
$var wire 32 9 B [31:0] $end
$var wire 4 : ALUControl [3:0] $end
$var wire 32 ; A [31:0] $end
$var reg 32 < Result [31:0] $end
$upscope $end
$scope module alu_srcb_mux $end
$var wire 1 1 sel $end
$var wire 32 = out [31:0] $end
$var wire 32 > in_2 [31:0] $end
$var wire 32 ? in_1 [31:0] $end
$upscope $end
$scope module ctrl_inst $end
$var wire 1 ' Zero $end
$var wire 3 @ funct3 [2:0] $end
$var wire 7 A funct7 [6:0] $end
$var wire 32 B inst [31:0] $end
$var wire 1 ( ResultSrc $end
$var wire 1 ) RegWrite_E $end
$var wire 1 , PCSrc $end
$var wire 7 C Op [6:0] $end
$var wire 1 - MemWrite_E $end
$var wire 3 D ImmSrc [2:0] $end
$var wire 1 1 ALUSrc $end
$var wire 3 E ALUOp [2:0] $end
$var wire 4 F ALUControl [3:0] $end
$scope module alu_decoder $end
$var wire 3 G funct3 [2:0] $end
$var wire 7 H funct7 [6:0] $end
$var wire 7 I op [6:0] $end
$var wire 3 J ALUOp [2:0] $end
$var reg 4 K ALUControl [3:0] $end
$upscope $end
$scope module main_decoder $end
$var wire 1 ' Zero $end
$var wire 32 L inst [31:0] $end
$var wire 7 M Op [6:0] $end
$var wire 7 N Funct7 [6:0] $end
$var wire 3 O Funct3 [2:0] $end
$var reg 3 P ALUOp [2:0] $end
$var reg 1 1 ALUSrc $end
$var reg 3 Q ImmSrc [2:0] $end
$var reg 1 - MemWrite_E $end
$var reg 1 , PCSrc $end
$var reg 1 ) RegWrite_E $end
$var reg 1 ( ResultSrc $end
$upscope $end
$upscope $end
$scope module dmem_inst $end
$var wire 32 R A [31:0] $end
$var wire 1 - WE $end
$var wire 1 3 clk $end
$var wire 1 4 rst $end
$var wire 32 S WD [31:0] $end
$var wire 32 T RD [31:0] $end
$upscope $end
$scope module imem_inst $end
$var wire 1 4 rst $end
$var wire 32 U ReadData [31:0] $end
$var wire 32 V Address [31:0] $end
$upscope $end
$scope module npc_inst $end
$var wire 1 , PCSrc $end
$var wire 32 W PCPLUS4 [31:0] $end
$var wire 32 X PC [31:0] $end
$var wire 32 Y IMMEXT [31:0] $end
$var reg 32 Z NPC [31:0] $end
$upscope $end
$scope module pc_inst $end
$var wire 32 [ NPC [31:0] $end
$var wire 1 3 clk $end
$var wire 1 4 rst $end
$var reg 32 \ PC [31:0] $end
$upscope $end
$scope module result_mux $end
$var wire 32 ] in_1 [31:0] $end
$var wire 32 ^ in_2 [31:0] $end
$var wire 1 ( sel $end
$var wire 32 _ out [31:0] $end
$upscope $end
$scope module rf_inst $end
$var wire 5 ` Address1 [4:0] $end
$var wire 5 a Address2 [4:0] $end
$var wire 5 b Address3 [4:0] $end
$var wire 32 c RD1 [31:0] $end
$var wire 32 d RD2 [31:0] $end
$var wire 32 e WD3 [31:0] $end
$var wire 1 ) WriteEnable3 $end
$var wire 1 3 clk $end
$var wire 1 4 rst $end
$var integer 32 f i [31:0] $end
$upscope $end
$scope module sext_inst $end
$var wire 3 g Imm_src [2:0] $end
$var wire 32 h Ins [31:0] $end
$var reg 32 i ImmExt [31:0] $end
$upscope $end
$scope task check_register $end
$var reg 32 j actual_value [31:0] $end
$var reg 32 k expected_value [31:0] $end
$var reg 5 l reg_addr [4:0] $end
$var reg 256 m test_name [255:0] $end
$upscope $end
$scope task display_instruction $end
$var reg 32 n instr [31:0] $end
$var reg 32 o pc [31:0] $end
$upscope $end
$scope task read_register $end
$var reg 5 p reg_addr [4:0] $end
$var reg 32 q reg_value [31:0] $end
$upscope $end
$upscope $end
$enddefinitions $end
$comment Show the parameter values. $end
$dumpall
$end
#0
$dumpvars
bx q
bx p
bx o
bx n
bx m
bx l
bx k
bx j
b0 i
b0 h
b0 g
bx f
bx e
bx d
bx c
b0 b
b0 a
b0 `
bx _
b0 ^
bx ]
bx \
bx [
bx Z
b0 Y
bx X
bx W
bx V
b0 U
b0 T
bx S
bx R
b0 Q
b10 P
b0 O
b0 N
b0 M
b0 L
b100 K
b10 J
b0 I
b0 H
b0 G
b100 F
b10 E
b0 D
b0 C
b0 B
b0 A
b0 @
bx ?
b0 >
bx =
bx <
bx ;
b100 :
bx 9
b0 8
b11110 7
b0 6
15
04
03
b100 2
01
bx 0
bx /
b0 .
0-
0,
bx +
bx *
0)
0(
x'
b0 &
b0 %
b0 $
bx #
bx "
bx !
$end
#5000
b0 !
b0 _
b0 e
1'
b0 0
b0 <
b0 R
b0 ]
b0 /
b0 9
b0 =
b100 *
b100 Z
b100 [
b0 #
b0 ;
b0 c
b0 "
b0 ?
b0 S
b0 d
b100 W
b0 +
b0 V
b0 X
b0 \
b100000 f
13
#10000
03
#15000
b100000 f
13
#20000
b1010 !
b1010 _
b1010 e
0'
b1010 0
b1010 <
b1010 R
b1010 ]
b1010 /
b1010 9
b1010 =
b1010 &
b1010 >
b1010 Y
b1010 i
b1 b
b1010 a
b1000 *
b1000 Z
b1000 [
11
1)
b1000 W
b100 +
b100 V
b100 X
b100 \
b10011 M
b10011 C
b10011 I
bx $
bx T
bx ^
b101000000000000010010011 %
b101000000000000010010011 B
b101000000000000010010011 L
b101000000000000010010011 U
b101000000000000010010011 h
03
14
#25000
b10100 !
b10100 _
b10100 e
b10100 0
b10100 <
b10100 R
b10100 ]
b10100 /
b10100 9
b10100 =
b10100 &
b10100 >
b10100 Y
b10100 i
b10 b
b10100 a
b1010000000000000100010011 %
b1010000000000000100010011 B
b1010000000000000100010011 L
b1010000000000000100010011 U
b1010000000000000100010011 h
b1100 *
b1100 Z
b1100 [
b1100 W
b1000 +
b1000 V
b1000 X
b1000 \
13
#30000
03
#35000
b10100 /
b10100 9
b10100 =
b1 E
b1 J
b1 P
01
b10 &
b10 >
b10 Y
b10 i
b11110 !
b11110 _
b11110 e
b11110 0
b11110 <
b11110 R
b11110 ]
b110011 M
b110011 C
b110011 I
b11 b
b10100 "
b10100 ?
b10100 S
b10100 d
b10 a
b1010 #
b1010 ;
b1010 c
b1 `
b1000001000000110110011 %
b1000001000000110110011 B
b1000001000000110110011 L
b1000001000000110110011 U
b1000001000000110110011 h
b10000 *
b10000 Z
b10000 [
b10000 W
b1100 +
b1100 V
b1100 X
b1100 \
13
#36000
b1000001000000110110011 n
b1100 o
#40000
03
#45000
b10000000001 &
b10000000001 >
b10000000001 Y
b10000000001 i
b1010 !
b1010 _
b1010 e
b110 2
b110 :
b110 F
b110 K
b1010 /
b1010 9
b1010 =
b1010 0
b1010 <
b1010 R
b1010 ]
b100000 N
b100000 A
b100000 H
b100 b
b1010 "
b1010 ?
b1010 S
b1010 d
b1 a
b10100 #
b10100 ;
b10100 c
b10 `
b1000000000100010000001000110011 %
b1000000000100010000001000110011 B
b1000000000100010000001000110011 L
b1000000000100010000001000110011 U
b1000000000100010000001000110011 h
b10100 *
b10100 Z
b10100 [
b10100 W
b10000 +
b10000 V
b10000 X
b10000 \
13
#46000
b1000000000100010000001000110011 n
b10000 o
b1 6
#50000
03
#55000
b10 &
b10 >
b10 Y
b10 i
b11110 !
b11110 _
b11110 e
b1001 2
b1001 :
b1001 F
b1001 K
b10100 /
b10100 9
b10100 =
0'
b11110 0
b11110 <
b11110 R
b11110 ]
b0 N
b100 O
b0 A
b0 H
b100 @
b100 G
b101 b
b10100 "
b10100 ?
b10100 S
b10100 d
b10 a
b1010 #
b1010 ;
b1010 c
b1 `
b1000001100001010110011 %
b1000001100001010110011 B
b1000001100001010110011 L
b1000001100001010110011 U
b1000001100001010110011 h
b11000 *
b11000 Z
b11000 [
b11000 W
b10100 +
b10100 V
b10100 X
b10100 \
13
#56000
b1000001100001010110011 n
b10100 o
b10 6
#60000
03
#65000
b1000 2
b1000 :
b1000 F
b1000 K
b110 O
b110 @
b110 G
b110 b
b1000001110001100110011 %
b1000001110001100110011 B
b1000001110001100110011 L
b1000001110001100110011 U
b1000001110001100110011 h
b11100 *
b11100 Z
b11100 [
b11100 W
b11000 +
b11000 V
b11000 X
b11000 \
13
#66000
b1000001110001100110011 n
b11000 o
b11 6
#70000
03
#75000
b0 !
b0 _
b0 e
1'
b0 0
b0 <
b0 R
b0 ]
b111 2
b111 :
b111 F
b111 K
b111 O
b111 @
b111 G
b111 b
b1000001111001110110011 %
b1000001111001110110011 B
b1000001111001110110011 L
b1000001111001110110011 U
b1000001111001110110011 h
b100000 *
b100000 Z
b100000 [
b100000 W
b11100 +
b11100 V
b11100 X
b11100 \
13
#76000
b1000001111001110110011 n
b11100 o
b100 6
#80000
03
#85000
b10 E
b10 J
b10 P
11
b1111 &
b1111 >
b1111 Y
b1111 i
b101 !
b101 _
b101 e
0'
b101 0
b101 <
b101 R
b101 ]
b1001 2
b1001 :
b1001 F
b1001 K
b1111 /
b1111 9
b1111 =
b100 O
b10011 M
b10011 C
b10011 I
b100 @
b100 G
b1000 b
b0 "
b0 ?
b0 S
b0 d
b1111 a
b111100001100010000010011 %
b111100001100010000010011 B
b111100001100010000010011 L
b111100001100010000010011 U
b111100001100010000010011 h
b100100 *
b100100 Z
b100100 [
b100100 W
b100000 +
b100000 V
b100000 X
b100000 \
13
#86000
b111100001100010000010011 n
b100000 o
b101 6
#90000
03
#95000
b111 /
b111 9
b111 =
b111 &
b111 >
b111 Y
b111 i
b1111 !
b1111 _
b1111 e
b1111 0
b1111 <
b1111 R
b1111 ]
b1000 2
b1000 :
b1000 F
b1000 K
b110 O
b110 @
b110 G
b1001 b
b111 a
b11100001110010010010011 %
b11100001110010010010011 B
b11100001110010010010011 L
b11100001110010010010011 U
b11100001110010010010011 h
b101000 *
b101000 Z
b101000 [
b101000 W
b100100 +
b100100 V
b100100 X
b100100 \
13
#96000
b11100001110010010010011 n
b100100 o
b110 6
#100000
03
#105000
b1110 /
b1110 9
b1110 =
b1110 &
b1110 >
b1110 Y
b1110 i
b1010 !
b1010 _
b1010 e
b1010 0
b1010 <
b1010 R
b1010 ]
b111 2
b111 :
b111 F
b111 K
b111 O
b111 @
b111 G
b1010 b
b1110 a
b111000001111010100010011 %
b111000001111010100010011 B
b111000001111010100010011 L
b111000001111010100010011 U
b111000001111010100010011 h
b101100 *
b101100 Z
b101100 [
b101100 W
b101000 +
b101000 V
b101000 X
b101000 \
13
#106000
b111000001111010100010011 n
b101000 o
b111 6
#110000
03
#115000
b10 /
b10 9
b10 =
b10 &
b10 >
b10 Y
b10 i
b101000 !
b101000 _
b101000 e
b101000 0
b101000 <
b101000 R
b101000 ]
b1 2
b1 :
b1 F
b1 K
b1 O
b1 @
b1 G
b1011 b
b10100 "
b10100 ?
b10100 S
b10100 d
b10 a
b1000001001010110010011 %
b1000001001010110010011 B
b1000001001010110010011 L
b1000001001010110010011 U
b1000001001010110010011 h
b110000 *
b110000 Z
b110000 [
b110000 W
b101100 +
b101100 V
b101100 X
b101100 \
13
#116000
b1000001001010110010011 n
b101100 o
b1000 6
#120000
03
#125000
b1 /
b1 9
b1 =
b1 &
b1 >
b1 Y
b1 i
b1111 !
b1111 _
b1111 e
b10 2
b10 :
b10 F
b10 K
b1111 0
b1111 <
b1111 R
b1111 ]
b101 O
b101 @
b101 G
b1100 b
b1010 "
b1010 ?
b1010 S
b1010 d
b1 a
b11110 #
b11110 ;
b11110 c
b11 `
b100011101011000010011 %
b100011101011000010011 B
b100011101011000010011 L
b100011101011000010011 U
b100011101011000010011 h
b110100 *
b110100 Z
b110100 [
b110100 W
b110000 +
b110000 V
b110000 X
b110000 \
13
#126000
b100011101011000010011 n
b110000 o
b1001 6
#130000
03
#135000
b10100 /
b10100 9
b10100 =
b1 E
b1 J
b1 P
01
b10 &
b10 >
b10 Y
b10 i
0'
b1 !
b1 _
b1 e
b1011 2
b1011 :
b1011 F
b1011 K
b1 0
b1 <
b1 R
b1 ]
b10 O
b110011 M
b110011 C
b110011 I
b10 @
b10 G
b1101 b
b10100 "
b10100 ?
b10100 S
b10100 d
b10 a
b1010 #
b1010 ;
b1010 c
b1 `
b1000001010011010110011 %
b1000001010011010110011 B
b1000001010011010110011 L
b1000001010011010110011 U
b1000001010011010110011 h
b111000 *
b111000 Z
b111000 [
b111000 W
b110100 +
b110100 V
b110100 X
b110100 \
13
#136000
b1000001010011010110011 n
b110100 o
b1010 6
#140000
03
#145000
b1010 2
b1010 :
b1010 F
b1010 K
b11 O
b11 @
b11 G
b1110 b
b1000001011011100110011 %
b1000001011011100110011 B
b1000001011011100110011 L
b1000001011011100110011 U
b1000001011011100110011 h
b111100 *
b111100 Z
b111100 [
b111100 W
b111000 +
b111000 V
b111000 X
b111000 \
13
#146000
b1000001011011100110011 n
b111000 o
b1011 6
#150000
03
#155000
b10 E
b10 J
b10 P
11
b1100100 &
b1100100 >
b1100100 Y
b1100100 i
b1100100 !
b1100100 _
b1100100 e
b1100100 0
b1100100 <
b1100100 R
b1100100 ]
b100 2
b100 :
b100 F
b100 K
b1100100 /
b1100100 9
b1100100 =
b11 N
b0 O
b10011 M
b10011 C
b10011 I
b11 A
b11 H
b0 @
b0 G
b1111 b
b1010 "
b1010 ?
b1010 S
b1010 d
b100 a
b0 #
b0 ;
b0 c
b0 `
b110010000000000011110010011 %
b110010000000000011110010011 B
b110010000000000011110010011 L
b110010000000000011110010011 U
b110010000000000011110010011 h
b1000000 *
b1000000 Z
b1000000 [
b1000000 W
b111100 +
b111100 V
b111100 X
b111100 \
13
#156000
b110010000000000011110010011 n
b111100 o
b1100 6
#160000
03
#165000
1'
b0 /
b0 9
b0 =
b0 E
b0 J
b0 P
1(
1-
b1 .
b1 D
b1 Q
b1 g
0)
b0 &
b0 >
b0 Y
b0 i
bx !
bx _
bx e
b0 0
b0 <
b0 R
b0 ]
b100 2
b100 :
b100 F
b100 K
b0 N
b10 O
b100011 M
b100011 C
b100011 I
b0 A
b0 H
b10 @
b10 G
b0 b
b11110 "
b11110 ?
b11110 S
b11110 d
b11 a
b11111 `
b1111111010000000100011 %
b1111111010000000100011 B
b1111111010000000100011 L
b1111111010000000100011 U
b1111111010000000100011 h
b1000100 *
b1000100 Z
b1000100 [
b1000100 W
b1000000 +
b1000000 V
b1000000 X
b1000000 \
13
#166000
b1111111010000000100011 n
b1000000 o
b1101 6
#170000
03
#175000
b0 /
b0 9
b0 =
0-
b0 .
b0 D
b0 Q
b0 g
1)
b0 &
b0 >
b0 Y
b0 i
0'
b1100100 0
b1100100 <
b1100100 R
b1100100 ]
b11 M
b11 C
b11 I
b10000 b
b0 "
b0 ?
b0 S
b0 d
b0 a
b1100100 #
b1100100 ;
b1100100 c
b1111 `
bx !
bx _
bx e
b1111010100000000011 %
b1111010100000000011 B
b1111010100000000011 L
b1111010100000000011 U
b1111010100000000011 h
bx $
bx T
bx ^
b1001000 *
b1001000 Z
b1001000 [
b1001000 W
b1000100 +
b1000100 V
b1000100 X
b1000100 \
13
#176000
b1111010100000000011 n
b1000100 o
b1110 6
#180000
03
#185000
b0 2
b0 :
b0 F
b0 K
b1001000110100000000000000 /
b1001000110100000000000000 9
b1001000110100000000000000 =
b100 E
b100 J
b100 P
b11 .
b11 D
b11 Q
b11 g
b1001000110100000000000000 &
b1001000110100000000000000 >
b1001000110100000000000000 Y
b1001000110100000000000000 i
b11110 0
b11110 <
b11110 R
b11110 ]
b100 O
b110111 M
b110111 C
b110111 I
b100 @
b100 G
b10001 b
b10010 a
b11110 #
b11110 ;
b11110 c
b110 `
b1001000110100100010110111 %
b1001000110100100010110111 B
b1001000110100100010110111 L
b1001000110100100010110111 U
b1001000110100100010110111 h
b1001100 *
b1001100 Z
b1001100 [
b1001100 W
b1001000 +
b1001000 V
b1001000 X
b1001000 \
13
#186000
b1001000110100100010110111 n
b1001000 o
b1111 6
#190000
03
#195000
1,
b11110 $
b11110 T
b11110 ^
1'
b0 !
b0 _
b0 e
b1001 2
b1001 :
b1001 F
b1001 K
b1010 /
b1010 9
b1010 =
b11 E
b11 J
b11 P
0(
01
b10 .
b10 D
b10 Q
b10 g
0)
b1000 &
b1000 >
b1000 Y
b1000 i
b0 0
b0 <
b0 R
b0 ]
b0 O
b1100011 M
b1100011 C
b1100011 I
b0 @
b0 G
b1000 b
b1010 "
b1010 ?
b1010 S
b1010 d
b1 a
b1010 #
b1010 ;
b1010 c
b1 `
b100001000010001100011 %
b100001000010001100011 B
b100001000010001100011 L
b100001000010001100011 U
b100001000010001100011 h
b1010100 *
b1010100 Z
b1010100 [
b1010000 W
b1001100 +
b1001100 V
b1001100 X
b1001100 \
13
#196000
b100001000010001100011 n
b1001100 o
b10000 6
#200000
03
#205000
b1100100 /
b1100100 9
b1100100 =
b100 2
b100 :
b100 F
b100 K
0,
b10 E
b10 J
b10 P
11
b0 .
b0 D
b0 Q
b0 g
1)
b1100100 &
b1100100 >
b1100100 Y
b1100100 i
bx $
bx T
bx ^
b1100100 !
b1100100 _
b1100100 e
0'
b1100100 0
b1100100 <
b1100100 R
b1100100 ]
b11 N
b10011 M
b10011 C
b10011 I
b11 A
b11 H
b10010 b
b100 a
b0 #
b0 ;
b0 c
b0 `
b110010000000000100100010011 %
b110010000000000100100010011 B
b110010000000000100100010011 L
b110010000000000100100010011 U
b110010000000000100100010011 h
b1011000 *
b1011000 Z
b1011000 [
b1011000 W
b1010100 +
b1010100 V
b1010100 X
b1010100 \
13
#206000
b110010000000000100100010011 n
b1010100 o
b10001 6
#210000
03
#215000
1,
b11110 $
b11110 T
b11110 ^
b0 !
b0 _
b0 e
1'
b0 0
b0 <
b0 R
b0 ]
b1001 2
b1001 :
b1001 F
b1001 K
b0 /
b0 9
b0 =
b11 E
b11 J
b11 P
01
b10 .
b10 D
b10 Q
b10 g
0)
b0 &
b0 >
b0 Y
b0 i
b0 N
b1100011 M
b1100011 C
b1100011 I
b0 A
b0 H
b0 b
b0 "
b0 ?
b0 S
b0 d
b0 a
b1100011 %
b1100011 B
b1100011 L
b1100011 U
b1100011 h
b1011000 *
b1011000 Z
b1011000 [
b1011100 W
b1011000 +
b1011000 V
b1011000 X
b1011000 \
13
#216000
b1100011 n
b1011000 o
b10010 6
#220000
03
#225000
13
#226000
b10011 6
#230000
03
#235000
13
#236000
b10100 6
#240000
03
#245000
13
#246000
b10101 6
#250000
03
#255000
13
#256000
b10110 6
#260000
03
#265000
13
#266000
b10111 6
#270000
03
#275000
13
#276000
b11000 6
#280000
03
#285000
13
#286000
b11001 6
#290000
03
#295000
13
#296000
b11010 6
#300000
03
#305000
13
#306000
b11011 6
#310000
03
#315000
13
#316000
b11100 6
#320000
03
#325000
13
#326000
b11101 6
#330000
03
#335000
13
#336000
b1011100 *
b1011100 Z
b1011100 [
0,
bx $
bx T
bx ^
b1010 !
b1010 _
b1010 e
0'
b1010 0
b1010 <
b1010 R
b1010 ]
b1010 #
b1010 ;
b1010 c
b1 `
b1 p
b1111111111111111111111111000101111111111111111111111111111100110111111111111111111111111100010101111111111111111111111111011110111111111111111111111111111101000111111111111111111111111101111001001101001111000001100010010000000111101001000000011000100110000 m
b1010 k
b1 l
b11110 6
#337000
b10100 !
b10100 _
b10100 e
b10100 0
b10100 <
b10100 R
b10100 ]
b10 p
b1111111111111111111111111000101111111111111111111111111111100110111111111111111111111111100010101111111111111111111111111011110111111111111111111111111111101000111111111111111111111111101111001001101001111000001100100010000000111101001000000011001000110000 m
b10100 k
b10 l
b1 8
b1010 j
b10100 #
b10100 ;
b10100 c
b10 `
b1010 q
#338000
b11110 !
b11110 _
b11110 e
b11110 0
b11110 <
b11110 R
b11110 ]
b11 p
b1110010110001010101000001110011010110011100101011110011010110101100010111110100010101111100101011110111110111100100110100111100000110011001000000011110100100000011110000011000100100000001010110010000001111000001100100010000000111101001000000011001100110000 m
b11110 k
b11 l
b10 8
b10100 j
b11110 #
b11110 ;
b11110 c
b11 `
b10100 q
#339000
b1010 !
b1010 _
b1010 e
b1010 0
b1010 <
b1010 R
b1010 ]
b100 p
b1110010110000111100011111110011010110011100101011110011010110101100010111110100010101111100101011110111110111100100110100111100000110100001000000011110100100000011110000011001000100000001011010010000001111000001100010010000000111101001000000011000100110000 m
b1010 k
b100 l
b11 8
b11110 j
b1010 #
b1010 ;
b1010 c
b100 `
b11110 q
#340000
b11110 !
b11110 _
b11110 e
b11110 0
b11110 <
b11110 R
b11110 ]
b101 p
b1011000010011110101001011111111111111111111111111101000111111111111111111111111101111001001101001111000001101010010000000111101001000000111100000110001001000000101100001001111010100100010000001111000001100100010000000111101001000000011001100110000 m
b11110 k
b101 l
b100 8
b1010 j
b11110 #
b11110 ;
b11110 c
b101 `
b1010 q
03
#341000
b110 p
b100111111111111111111111111111110001011111111111111111111111111111011111111111110011010011110000011011000100000001111010010000001111000001100010010000001001111010100100010000001111000001100100010000000111101001000000011001100110000 m
b110 l
b101 8
b11110 j
b11110 #
b11110 ;
b11110 c
b110 `
b11110 q
#342000
b1011000 *
b1011000 Z
b1011000 [
1,
b11110 $
b11110 T
b11110 ^
b0 !
b0 _
b0 e
1'
b0 0
b0 <
b0 R
b0 ]
b111 p
b10000010100111011111111111111111111111110001011111111111111111111111111111011111111111110011010011110000011011100100000001111010010000001111000001100010010000001000001010011100100010000100000011110000011001000100000001111010010000000110000 m
b0 k
b111 l
b110 8
b0 #
b0 ;
b0 c
b111 `
#343000
b1011100 *
b1011100 Z
b1011100 [
0,
bx $
bx T
bx ^
b101 !
b101 _
b101 e
0'
b101 0
b101 <
b101 R
b101 ]
b101 #
b101 ;
b101 c
b1000 p
b1001010110110000010110000100111101010010111001101011010110001011111010001010111110010101111011111011110010011010011110000011100000100000001111010010000001111000001100010010000001011000010011110101001000100000001100010011010100100000001111010010000000110101 m
b101 k
b1000 l
b111 8
b0 j
b1000 `
b0 q
#344000
b1111 !
b1111 _
b1111 e
b1111 0
b1111 <
b1111 R
b1111 ]
b1001 p
b1011001111100110100101011011000001001111010100101110011010110101100010111110100010101111100101011110111110111100100110100111100000111001001000000011110100100000011110000011000100100000010011110101001000100000001101110010000000111101001000000011000100110101 m
b1111 k
b1001 l
b1000 8
b101 j
b1111 #
b1111 ;
b1111 c
b1001 `
b101 q
#345000
b0 2
b0 :
b0 F
b0 K
b10 E
b10 J
b10 P
b0 .
b0 D
b0 Q
b0 g
bx &
bx >
bx Y
bx i
0'
bx /
bx 9
bx =
bx N
bx O
bx M
bx C
bx I
bx A
bx H
bx @
bx G
bx b
bx "
bx ?
bx S
bx d
bx a
bx %
bx B
bx L
bx U
bx h
b1100000 *
b1100000 Z
b1100000 [
b1100000 W
b1011100 +
b1011100 V
b1011100 X
b1011100 \
b1010 !
b1010 _
b1010 e
b1010 0
b1010 <
b1010 R
b1010 ]
b1010 p
b100000101001110010001001110011010110101100010111110100010101111100101011110111110111100100110100111100000110001001100000010000000111101001000000111100000110001001000000100000101001110010001000010000000110001001101000010000000111101001000000011000100110000 m
b1010 k
b1010 l
b1001 8
b1111 j
b1010 #
b1010 ;
b1010 c
b1010 `
b1111 q
13
#346000
b101000 !
b101000 _
b101000 e
b101000 0
b101000 <
b101000 R
b101000 ]
b1011 p
b1011011110100110111001111010011110111011111001101011010110001011111010001010111110010101111011111011110010011010011110000011000100110001001000000011110100100000011110000011000100100000001111000011110000100000001100100010000000111101001000000011010000110000 m
b101000 k
b1011 l
b1010 8
b1010 j
b101000 #
b101000 ;
b101000 c
b1011 `
b1010 q
#347000
b1111 !
b1111 _
b1111 e
b1111 0
b1111 <
b1111 R
b1111 ]
b1100 p
b1000111110110011111001111010011110111011111001101011010110001011111010001010111110010101111011111011110010011010011110000011000100110010001000000011110100100000011110000011001100100000001111100011111000100000001100010010000000111101001000000011000100110101 m
b1111 k
b1100 l
b1011 8
b101000 j
b1111 #
b1111 ;
b1111 c
b1100 `
b101000 q
#348000
b1 !
b1 _
b1 e
b1 0
b1 <
b1 R
b1 ]
b1101 p
b1001010011101000101111101000001111100110101101011000101111101000101011111001010111101111101111001001101001111000001100010011001100100000001111010010000000101000011110000011000100100000001111000010000001111000001100100010100100100000001111010010000000110001 m
b1 k
b1101 l
b1100 8
b1111 j
b1 #
b1 ;
b1 c
b1101 `
b1111 q
#349000
b1110 p
b1001010011101000101111101000001111100110101101011000101111101000101011111001010111101111101111001001101001111000001100010011010000100000001111010010000000101000011110000011000100100000001111000010000001111000001100100010100100100000001111010010000000110001 m
b1110 l
b1101 8
b1 j
b1 #
b1 ;
b1 c
b1110 `
b1 q
#350000
b1100100 !
b1100100 _
b1100100 e
b1100100 0
b1100100 <
b1100100 R
b1100100 ]
b1111 p
b1111111111111111111111111000011011111111111111111111111110011000111111111111111111111111111001011111111111111111111111111010111011111111111111111111111110101110111111111111111110011010011110000011000100110101001000000011110100100000001100010011000000110000 m
b1100100 k
b1111 l
b1110 8
b1100100 #
b1100100 ;
b1100100 c
b1111 `
03
#351000
bx !
bx _
bx e
x'
bx 0
bx <
bx R
bx ]
b10000 p
b11011000100000001111010010000011100100101110111000111011100101100001101000010111100101101011011001100011100101100010101010000011101000101111011011110111100111100110101000010001111000001100111110010110000000101111000010000000111101001000000011001100110000 m
b11110 k
b10000 l
b1111 8
b1100100 j
bx #
bx ;
bx c
b10000 `
b1100100 q
#352000
b10001 p
b1000101111100101100011011011001111100110100101011011000011100110101101011000101111101000101011111001010111101111101111001001101001111000001100010011011100100000001111010010000000110000011110000011000100110010001100110011010000110000001100000011000000110000 m
b10010001101000000000000000000 k
b10001 l
b10000 8
05
bx j
b10001 `
bx q
#353000
b1100100 !
b1100100 _
b1100100 e
0'
b1100100 0
b1100100 <
b1100100 R
b1100100 ]
b1100100 #
b1100100 ;
b1100100 c
b10010 p
b1010111110010101111011111011110010011010011110000011000100111000001000000011110100100000001100010011000000110000111011111011110010001000111010001011011110110011111010001011110110101100111001101000100010010000111001011000101010011111111011111011110010001001 m
b1100100 k
b10010 l
b10001 8
b10010 `
#354000
bx !
bx _
bx e
x'
bx 0
bx <
bx R
bx ]
b10010 8
b1100100 j
bx #
bx ;
bx c
bx `
b1100100 q
#355000
b1100100 *
b1100100 Z
b1100100 [
b1100100 W
b1100000 +
b1100000 V
b1100000 X
b1100000 \
13
#360000
03
#365000
b1101000 *
b1101000 Z
b1101000 [
b1101000 W
b1100100 +
b1100100 V
b1100100 X
b1100100 \
13
#370000
03
#375000
b1101100 *
b1101100 Z
b1101100 [
b1101100 W
b1101000 +
b1101000 V
b1101000 X
b1101000 \
13
#380000
03
#385000
b1110000 *
b1110000 Z
b1110000 [
b1110000 W
b1101100 +
b1101100 V
b1101100 X
b1101100 \
13
#390000
03
#395000
b1110100 *
b1110100 Z
b1110100 [
b1110100 W
b1110000 +
b1110000 V
b1110000 X
b1110000 \
13
