testbench/Simple_CPU_Test_tb.vcd
$date
	Thu Dec  4 17:30:12 2025
$end
$version
	Icarus Verilog
$end
$timescale
	1ps
$end
$scope module Simple_CPU_Test_tb $end
$var wire 32 ! reg_write_data [31:0] $end
$var wire 32 " reg_data2 [31:0] $end
$var wire 32 # reg_data1 [31:0] $end
$var wire 32 $ memory_read_data [31:0] $end
$var wire 32 % instruction [31:0] $end
$var wire 32 & immediate [31:0] $end
$var wire 1 ' Zero $end
$var wire 1 ( ResultSrc $end
$var wire 1 ) RegWrite $end
$var wire 32 * PC_next [31:0] $end
$var wire 32 + PC_current [31:0] $end
$var wire 1 , PCSrc $end
$var wire 1 - MemWrite $end
$var wire 3 . ImmSrc [2:0] $end
$var wire 32 / ALU_srcB [31:0] $end
$var wire 32 0 ALU_result [31:0] $end
$var wire 1 1 ALUSrc $end
$var wire 4 2 ALUControl [3:0] $end
$var reg 1 3 clk $end
$var reg 1 4 rst $end
$var integer 32 5 cycle_count [31:0] $end
$scope module alu_inst $end
$var wire 1 ' Zero $end
$var wire 32 6 B [31:0] $end
$var wire 4 7 ALUControl [3:0] $end
$var wire 32 8 A [31:0] $end
$var reg 32 9 Result [31:0] $end
$upscope $end
$scope module alu_srcb_mux $end
$var wire 1 1 sel $end
$var wire 32 : out [31:0] $end
$var wire 32 ; in_2 [31:0] $end
$var wire 32 < in_1 [31:0] $end
$upscope $end
$scope module ctrl_inst $end
$var wire 1 ' Zero $end
$var wire 3 = funct3 [2:0] $end
$var wire 7 > funct7 [6:0] $end
$var wire 32 ? inst [31:0] $end
$var wire 1 ( ResultSrc $end
$var wire 1 ) RegWrite_E $end
$var wire 1 , PCSrc $end
$var wire 7 @ Op [6:0] $end
$var wire 1 - MemWrite_E $end
$var wire 3 A ImmSrc [2:0] $end
$var wire 1 1 ALUSrc $end
$var wire 3 B ALUOp [2:0] $end
$var wire 4 C ALUControl [3:0] $end
$scope module alu_decoder $end
$var wire 3 D funct3 [2:0] $end
$var wire 7 E funct7 [6:0] $end
$var wire 7 F op [6:0] $end
$var wire 3 G ALUOp [2:0] $end
$var reg 4 H ALUControl [3:0] $end
$upscope $end
$scope module main_decoder $end
$var wire 1 ' Zero $end
$var wire 32 I inst [31:0] $end
$var wire 7 J Op [6:0] $end
$var wire 7 K Funct7 [6:0] $end
$var wire 3 L Funct3 [2:0] $end
$var reg 3 M ALUOp [2:0] $end
$var reg 1 1 ALUSrc $end
$var reg 3 N ImmSrc [2:0] $end
$var reg 1 - MemWrite_E $end
$var reg 1 , PCSrc $end
$var reg 1 ) RegWrite_E $end
$var reg 1 ( ResultSrc $end
$upscope $end
$upscope $end
$scope module dmem_inst $end
$var wire 32 O A [31:0] $end
$var wire 1 - WE $end
$var wire 1 3 clk $end
$var wire 1 4 rst $end
$var wire 32 P WD [31:0] $end
$var wire 32 Q RD [31:0] $end
$upscope $end
$scope module imem_inst $end
$var wire 1 4 rst $end
$var wire 32 R ReadData [31:0] $end
$var wire 32 S Address [31:0] $end
$upscope $end
$scope module npc_inst $end
$var wire 1 , PCSrc $end
$var wire 32 T PCPLUS4 [31:0] $end
$var wire 32 U PC [31:0] $end
$var wire 32 V IMMEXT [31:0] $end
$var reg 32 W NPC [31:0] $end
$upscope $end
$scope module pc_inst $end
$var wire 32 X NPC [31:0] $end
$var wire 1 3 clk $end
$var wire 1 4 rst $end
$var reg 32 Y PC [31:0] $end
$upscope $end
$scope module result_mux $end
$var wire 32 Z in_1 [31:0] $end
$var wire 32 [ in_2 [31:0] $end
$var wire 1 ( sel $end
$var wire 32 \ out [31:0] $end
$upscope $end
$scope module rf_inst $end
$var wire 5 ] Address1 [4:0] $end
$var wire 5 ^ Address2 [4:0] $end
$var wire 5 _ Address3 [4:0] $end
$var wire 32 ` RD1 [31:0] $end
$var wire 32 a RD2 [31:0] $end
$var wire 32 b WD3 [31:0] $end
$var wire 1 ) WriteEnable3 $end
$var wire 1 3 clk $end
$var wire 1 4 rst $end
$var integer 32 c i [31:0] $end
$upscope $end
$scope module sext_inst $end
$var wire 3 d Imm_src [2:0] $end
$var wire 32 e Ins [31:0] $end
$var reg 32 f ImmExt [31:0] $end
$upscope $end
$upscope $end
$enddefinitions $end
$comment Show the parameter values. $end
$dumpall
$end
#0
$dumpvars
b0 f
b0 e
b0 d
bx c
bx b
bx a
bx `
b0 _
b0 ^
b0 ]
bx \
b0 [
bx Z
bx Y
bx X
bx W
b0 V
bx U
bx T
bx S
b0 R
b0 Q
bx P
bx O
b0 N
b10 M
b0 L
b0 K
b0 J
b0 I
b100 H
b10 G
b0 F
b0 E
b0 D
b100 C
b10 B
b0 A
b0 @
b0 ?
b0 >
b0 =
bx <
b0 ;
bx :
bx 9
bx 8
b100 7
bx 6
b0 5
04
03
b100 2
01
bx 0
bx /
b0 .
0-
0,
bx +
bx *
0)
0(
x'
b0 &
b0 %
b0 $
bx #
bx "
bx !
$end
#5000
b0 !
b0 \
b0 b
1'
b0 0
b0 9
b0 O
b0 Z
b0 /
b0 6
b0 :
b100 *
b100 W
b100 X
b0 #
b0 8
b0 `
b0 "
b0 <
b0 P
b0 a
b100 T
b0 +
b0 S
b0 U
b0 Y
b100000 c
13
#10000
03
#15000
b1010 !
b1010 \
b1010 b
0'
b1010 0
b1010 9
b1010 O
b1010 Z
b1010 /
b1010 6
b1010 :
b1010 &
b1010 ;
b1010 V
b1010 f
b1 _
b1010 ^
b1000 *
b1000 W
b1000 X
11
1)
b1000 T
b100 +
b100 S
b100 U
b100 Y
b10011 J
b10011 @
b10011 F
bx $
bx Q
bx [
b101000000000000010010011 %
b101000000000000010010011 ?
b101000000000000010010011 I
b101000000000000010010011 R
b101000000000000010010011 e
13
14
#20000
03
#25000
b10100 !
b10100 \
b10100 b
b10100 0
b10100 9
b10100 O
b10100 Z
b10100 /
b10100 6
b10100 :
b10100 &
b10100 ;
b10100 V
b10100 f
b10 _
b10100 ^
b1010000000000000100010011 %
b1010000000000000100010011 ?
b1010000000000000100010011 I
b1010000000000000100010011 R
b1010000000000000100010011 e
b1100 *
b1100 W
b1100 X
b1100 T
b1000 +
b1000 S
b1000 U
b1000 Y
13
#26000
b11110 !
b11110 \
b11110 b
b11110 0
b11110 9
b11110 O
b11110 Z
b1010 #
b1010 8
b1010 `
b1 ]
b1 5
#27000
b10100 !
b10100 \
b10100 b
b10100 0
b10100 9
b10100 O
b10100 Z
b0 #
b0 8
b0 `
b10 ]
#28000
b11 ]
#29000
b100 ]
#30000
b0 ]
03
#35000
b10100 /
b10100 6
b10100 :
b1 B
b1 G
b1 M
01
b10 &
b10 ;
b10 V
b10 f
b11110 !
b11110 \
b11110 b
b11110 0
b11110 9
b11110 O
b11110 Z
b110011 J
b110011 @
b110011 F
b11 _
b10100 "
b10100 <
b10100 P
b10100 a
b10 ^
b1010 #
b1010 8
b1010 `
b1 ]
b1000001000000110110011 %
b1000001000000110110011 ?
b1000001000000110110011 I
b1000001000000110110011 R
b1000001000000110110011 e
b10000 *
b10000 W
b10000 X
b10000 T
b1100 +
b1100 S
b1100 U
b1100 Y
13
#36000
b1 ]
b10 5
#37000
b101000 !
b101000 \
b101000 b
b101000 0
b101000 9
b101000 O
b101000 Z
b10100 #
b10100 8
b10100 `
b10 ]
#38000
b10100 !
b10100 \
b10100 b
b10100 0
b10100 9
b10100 O
b10100 Z
b0 #
b0 8
b0 `
b11 ]
#39000
b100 ]
#40000
b11110 !
b11110 \
b11110 b
b11110 0
b11110 9
b11110 O
b11110 Z
b1010 #
b1010 8
b1010 `
b1 ]
03
#45000
b10000000001 &
b10000000001 ;
b10000000001 V
b10000000001 f
b1010 !
b1010 \
b1010 b
b110 2
b110 7
b110 C
b110 H
b1010 /
b1010 6
b1010 :
b1010 0
b1010 9
b1010 O
b1010 Z
b100000 K
b100000 >
b100000 E
b100 _
b1010 "
b1010 <
b1010 P
b1010 a
b1 ^
b10100 #
b10100 8
b10100 `
b10 ]
b1000000000100010000001000110011 %
b1000000000100010000001000110011 ?
b1000000000100010000001000110011 I
b1000000000100010000001000110011 R
b1000000000100010000001000110011 e
b10100 *
b10100 W
b10100 X
b10100 T
b10000 +
b10000 S
b10000 U
b10000 Y
13
#46000
b0 !
b0 \
b0 b
1'
b0 0
b0 9
b0 O
b0 Z
b1010 #
b1010 8
b1010 `
b1 ]
b11 5
#47000
b1010 !
b1010 \
b1010 b
0'
b1010 0
b1010 9
b1010 O
b1010 Z
b10100 #
b10100 8
b10100 `
b10 ]
#48000
b10100 !
b10100 \
b10100 b
b10100 0
b10100 9
b10100 O
b10100 Z
b11110 #
b11110 8
b11110 `
b11 ]
#49000
b11111111111111111111111111110110 !
b11111111111111111111111111110110 \
b11111111111111111111111111110110 b
b11111111111111111111111111110110 0
b11111111111111111111111111110110 9
b11111111111111111111111111110110 O
b11111111111111111111111111110110 Z
b0 #
b0 8
b0 `
b100 ]
#50000
b1010 !
b1010 \
b1010 b
b1010 0
b1010 9
b1010 O
b1010 Z
b10100 #
b10100 8
b10100 `
b10 ]
03
#55000
b10 &
b10 ;
b10 V
b10 f
b11110 !
b11110 \
b11110 b
b1001 2
b1001 7
b1001 C
b1001 H
b10100 /
b10100 6
b10100 :
0'
b11110 0
b11110 9
b11110 O
b11110 Z
b0 K
b100 L
b0 >
b0 E
b100 =
b100 D
b101 _
b10100 "
b10100 <
b10100 P
b10100 a
b10 ^
b1010 #
b1010 8
b1010 `
b1 ]
b1000001100001010110011 %
b1000001100001010110011 ?
b1000001100001010110011 I
b1000001100001010110011 R
b1000001100001010110011 e
b11000 *
b11000 W
b11000 X
b11000 T
b10100 +
b10100 S
b10100 U
b10100 Y
13
#56000
b1 ]
b100 5
#57000
b0 !
b0 \
b0 b
1'
b0 0
b0 9
b0 O
b0 Z
b10100 #
b10100 8
b10100 `
b10 ]
#58000
b1010 !
b1010 \
b1010 b
0'
b1010 0
b1010 9
b1010 O
b1010 Z
b11110 #
b11110 8
b11110 `
b11 ]
#59000
b11110 !
b11110 \
b11110 b
b11110 0
b11110 9
b11110 O
b11110 Z
b1010 #
b1010 8
b1010 `
b100 ]
#60000
b1 ]
03
#65000
b1000 2
b1000 7
b1000 C
b1000 H
b110 L
b110 =
b110 D
b110 _
b1000001110001100110011 %
b1000001110001100110011 ?
b1000001110001100110011 I
b1000001110001100110011 R
b1000001110001100110011 e
b11100 *
b11100 W
b11100 X
b11100 T
b11000 +
b11000 S
b11000 U
b11000 Y
13
#66000
b1 ]
b101 5
#67000
b10100 !
b10100 \
b10100 b
b10100 0
b10100 9
b10100 O
b10100 Z
b10100 #
b10100 8
b10100 `
b10 ]
#68000
b11110 !
b11110 \
b11110 b
b11110 0
b11110 9
b11110 O
b11110 Z
b11110 #
b11110 8
b11110 `
b11 ]
#69000
b1010 #
b1010 8
b1010 `
b100 ]
#70000
b1 ]
03
#75000
b0 !
b0 \
b0 b
1'
b0 0
b0 9
b0 O
b0 Z
b111 2
b111 7
b111 C
b111 H
b111 L
b111 =
b111 D
b111 _
b1000001111001110110011 %
b1000001111001110110011 ?
b1000001111001110110011 I
b1000001111001110110011 R
b1000001111001110110011 e
b100000 *
b100000 W
b100000 X
b100000 T
b11100 +
b11100 S
b11100 U
b11100 Y
13
#76000
b1 ]
b110 5
#77000
b10100 !
b10100 \
b10100 b
0'
b10100 0
b10100 9
b10100 O
b10100 Z
b10100 #
b10100 8
b10100 `
b10 ]
#78000
b11110 #
b11110 8
b11110 `
b11 ]
#79000
b0 !
b0 \
b0 b
1'
b0 0
b0 9
b0 O
b0 Z
b1010 #
b1010 8
b1010 `
b100 ]
#80000
b1 ]
03
#85000
b10 B
b10 G
b10 M
11
b1111 &
b1111 ;
b1111 V
b1111 f
b101 !
b101 \
b101 b
0'
b101 0
b101 9
b101 O
b101 Z
b1001 2
b1001 7
b1001 C
b1001 H
b1111 /
b1111 6
b1111 :
b100 L
b10011 J
b10011 @
b10011 F
b100 =
b100 D
b1000 _
b0 "
b0 <
b0 P
b0 a
b1111 ^
b111100001100010000010011 %
b111100001100010000010011 ?
b111100001100010000010011 I
b111100001100010000010011 R
b111100001100010000010011 e
b100100 *
b100100 W
b100100 X
b100100 T
b100000 +
b100000 S
b100000 U
b100000 Y
13
#86000
b1 ]
b111 5
#87000
b11011 !
b11011 \
b11011 b
b11011 0
b11011 9
b11011 O
b11011 Z
b10100 #
b10100 8
b10100 `
b10 ]
#88000
b10001 !
b10001 \
b10001 b
b10001 0
b10001 9
b10001 O
b10001 Z
b11110 #
b11110 8
b11110 `
b11 ]
#89000
b101 !
b101 \
b101 b
b101 0
b101 9
b101 O
b101 Z
b1010 #
b1010 8
b1010 `
b100 ]
#90000
b1 ]
03
#95000
b111 /
b111 6
b111 :
b111 &
b111 ;
b111 V
b111 f
b1111 !
b1111 \
b1111 b
b1111 0
b1111 9
b1111 O
b1111 Z
b1000 2
b1000 7
b1000 C
b1000 H
b110 L
b110 =
b110 D
b1001 _
b111 ^
b11100001110010010010011 %
b11100001110010010010011 ?
b11100001110010010010011 I
b11100001110010010010011 R
b11100001110010010010011 e
b101000 *
b101000 W
b101000 X
b101000 T
b100100 +
b100100 S
b100100 U
b100100 Y
13
#96000
b1 ]
b1000 5
#97000
b10111 !
b10111 \
b10111 b
b10111 0
b10111 9
b10111 O
b10111 Z
b10100 #
b10100 8
b10100 `
b10 ]
#98000
b11111 !
b11111 \
b11111 b
b11111 0
b11111 9
b11111 O
b11111 Z
b11110 #
b11110 8
b11110 `
b11 ]
#99000
b1111 !
b1111 \
b1111 b
b1111 0
b1111 9
b1111 O
b1111 Z
b1010 #
b1010 8
b1010 `
b100 ]
#100000
b1 ]
03
#105000
b1110 /
b1110 6
b1110 :
b1110 &
b1110 ;
b1110 V
b1110 f
b1010 !
b1010 \
b1010 b
b1010 0
b1010 9
b1010 O
b1010 Z
b111 2
b111 7
b111 C
b111 H
b111 L
b111 =
b111 D
b1010 _
b1110 ^
b111000001111010100010011 %
b111000001111010100010011 ?
b111000001111010100010011 I
b111000001111010100010011 R
b111000001111010100010011 e
b101100 *
b101100 W
b101100 X
b101100 T
b101000 +
b101000 S
b101000 U
b101000 Y
13
#106000
b1 ]
b1001 5
#107000
b100 !
b100 \
b100 b
b100 0
b100 9
b100 O
b100 Z
b10100 #
b10100 8
b10100 `
b10 ]
#108000
b1110 !
b1110 \
b1110 b
b1110 0
b1110 9
b1110 O
b1110 Z
b11110 #
b11110 8
b11110 `
b11 ]
#109000
b1010 !
b1010 \
b1010 b
b1010 0
b1010 9
b1010 O
b1010 Z
b1010 #
b1010 8
b1010 `
b100 ]
#110000
b1 ]
03
#115000
b10 /
b10 6
b10 :
b10 &
b10 ;
b10 V
b10 f
b101000 !
b101000 \
b101000 b
b101000 0
b101000 9
b101000 O
b101000 Z
b1 2
b1 7
b1 C
b1 H
b1 L
b1 =
b1 D
b1011 _
b10100 "
b10100 <
b10100 P
b10100 a
b10 ^
b1000001001010110010011 %
b1000001001010110010011 ?
b1000001001010110010011 I
b1000001001010110010011 R
b1000001001010110010011 e
b110000 *
b110000 W
b110000 X
b110000 T
b101100 +
b101100 S
b101100 U
b101100 Y
13
#116000
b1 ]
b1010 5
#117000
b1010000 !
b1010000 \
b1010000 b
b1010000 0
b1010000 9
b1010000 O
b1010000 Z
b10100 #
b10100 8
b10100 `
b10 ]
#118000
b1111000 !
b1111000 \
b1111000 b
b1111000 0
b1111000 9
b1111000 O
b1111000 Z
b11110 #
b11110 8
b11110 `
b11 ]
#119000
b101000 !
b101000 \
b101000 b
b101000 0
b101000 9
b101000 O
b101000 Z
b1010 #
b1010 8
b1010 `
b100 ]
#120000
b1 ]
03
#125000
b1 /
b1 6
b1 :
b1 &
b1 ;
b1 V
b1 f
b1111 !
b1111 \
b1111 b
b10 2
b10 7
b10 C
b10 H
b1111 0
b1111 9
b1111 O
b1111 Z
b101 L
b101 =
b101 D
b1100 _
b1010 "
b1010 <
b1010 P
b1010 a
b1 ^
b11110 #
b11110 8
b11110 `
b11 ]
b100011101011000010011 %
b100011101011000010011 ?
b100011101011000010011 I
b100011101011000010011 R
b100011101011000010011 e
b110100 *
b110100 W
b110100 X
b110100 T
b110000 +
b110000 S
b110000 U
b110000 Y
13
#130000
03
#135000
b10100 /
b10100 6
b10100 :
b1 B
b1 G
b1 M
01
b10 &
b10 ;
b10 V
b10 f
0'
b1 !
b1 \
b1 b
b1011 2
b1011 7
b1011 C
b1011 H
b1 0
b1 9
b1 O
b1 Z
b10 L
b110011 J
b110011 @
b110011 F
b10 =
b10 D
b1101 _
b10100 "
b10100 <
b10100 P
b10100 a
b10 ^
b1010 #
b1010 8
b1010 `
b1 ]
b1000001010011010110011 %
b1000001010011010110011 ?
b1000001010011010110011 I
b1000001010011010110011 R
b1000001010011010110011 e
b111000 *
b111000 W
b111000 X
b111000 T
b110100 +
b110100 S
b110100 U
b110100 Y
13
#140000
03
#145000
b1010 2
b1010 7
b1010 C
b1010 H
b11 L
b11 =
b11 D
b1110 _
b1000001011011100110011 %
b1000001011011100110011 ?
b1000001011011100110011 I
b1000001011011100110011 R
b1000001011011100110011 e
b111100 *
b111100 W
b111100 X
b111100 T
b111000 +
b111000 S
b111000 U
b111000 Y
13
#150000
03
#155000
b10 B
b10 G
b10 M
11
b1100100 &
b1100100 ;
b1100100 V
b1100100 f
b1100100 !
b1100100 \
b1100100 b
b1100100 0
b1100100 9
b1100100 O
b1100100 Z
b100 2
b100 7
b100 C
b100 H
b1100100 /
b1100100 6
b1100100 :
b11 K
b0 L
b10011 J
b10011 @
b10011 F
b11 >
b11 E
b0 =
b0 D
b1111 _
b1010 "
b1010 <
b1010 P
b1010 a
b100 ^
b0 #
b0 8
b0 `
b0 ]
b110010000000000011110010011 %
b110010000000000011110010011 ?
b110010000000000011110010011 I
b110010000000000011110010011 R
b110010000000000011110010011 e
b1000000 *
b1000000 W
b1000000 X
b1000000 T
b111100 +
b111100 S
b111100 U
b111100 Y
13
#160000
03
#165000
1'
b0 /
b0 6
b0 :
b0 B
b0 G
b0 M
1(
1-
b1 .
b1 A
b1 N
b1 d
0)
b0 &
b0 ;
b0 V
b0 f
bx !
bx \
bx b
b0 0
b0 9
b0 O
b0 Z
b100 2
b100 7
b100 C
b100 H
b0 K
b10 L
b100011 J
b100011 @
b100011 F
b0 >
b0 E
b10 =
b10 D
b0 _
b11110 "
b11110 <
b11110 P
b11110 a
b11 ^
b11111 ]
b1111111010000000100011 %
b1111111010000000100011 ?
b1111111010000000100011 I
b1111111010000000100011 R
b1111111010000000100011 e
b1000100 *
b1000100 W
b1000100 X
b1000100 T
b1000000 +
b1000000 S
b1000000 U
b1000000 Y
13
