testbench/Single_Cycle_Top_tb.vcd
$date
	Fri Dec  5 17:38:46 2025
$end
$version
	Icarus Verilog
$end
$timescale
	1ps
$end
$scope module Single_Cycle_Top_tb $end
$var wire 1 ! MemWrite $end
$var wire 32 " PC_current [31:0] $end
$var wire 1 # RegWrite $end
$var wire 32 $ immediate [31:0] $end
$var wire 32 % instruction [31:0] $end
$var wire 32 & reg_data1 [31:0] $end
$var wire 32 ' reg_data2 [31:0] $end
$var wire 32 ( reg_write_data [31:0] $end
$var reg 1 ) clk $end
$var reg 1 * rst $end
$var integer 32 + cycle_count [31:0] $end
$scope module cpu $end
$var wire 1 ) clk $end
$var wire 1 * rst $end
$var wire 1 , Zero $end
$var wire 32 - SrcB [31:0] $end
$var wire 3 . ResultSrc [2:0] $end
$var wire 32 / Result [31:0] $end
$var wire 1 0 RegWrite $end
$var wire 32 1 ReadData [31:0] $end
$var wire 32 2 RD_Instr [31:0] $end
$var wire 32 3 RD2_Top [31:0] $end
$var wire 32 4 RD1_Top [31:0] $end
$var wire 32 5 PC_Top [31:0] $end
$var wire 1 6 PCSrc $end
$var wire 32 7 PCPlus4 [31:0] $end
$var wire 1 8 MemWrite $end
$var wire 32 9 Imm_Ext_Top [31:0] $end
$var wire 3 : ImmSrc [2:0] $end
$var wire 1 ; ALUSrc $end
$var wire 32 < ALUResult [31:0] $end
$var wire 4 = ALUControl_Top [3:0] $end
$scope module ALU $end
$var wire 1 , Zero $end
$var wire 32 > B [31:0] $end
$var wire 4 ? ALUControl [3:0] $end
$var wire 32 @ A [31:0] $end
$var reg 32 A Result [31:0] $end
$upscope $end
$scope module Controller $end
$var wire 1 , Zero $end
$var wire 3 B funct3 [2:0] $end
$var wire 7 C funct7 [6:0] $end
$var wire 32 D inst [31:0] $end
$var wire 3 E ResultSrc [2:0] $end
$var wire 1 0 RegWrite_E $end
$var wire 1 6 PCSrc $end
$var wire 7 F Op [6:0] $end
$var wire 1 8 MemWrite_E $end
$var wire 3 G ImmSrc [2:0] $end
$var wire 1 ; ALUSrc $end
$var wire 3 H ALUOp [2:0] $end
$var wire 4 I ALUControl [3:0] $end
$scope module alu_decoder $end
$var wire 3 J funct3 [2:0] $end
$var wire 7 K funct7 [6:0] $end
$var wire 7 L op [6:0] $end
$var wire 3 M ALUOp [2:0] $end
$var reg 4 N ALUControl [3:0] $end
$upscope $end
$scope module main_decoder $end
$var wire 1 , Zero $end
$var wire 32 O inst [31:0] $end
$var wire 7 P Op [6:0] $end
$var wire 7 Q Funct7 [6:0] $end
$var wire 3 R Funct3 [2:0] $end
$var reg 3 S ALUOp [2:0] $end
$var reg 1 ; ALUSrc $end
$var reg 3 T ImmSrc [2:0] $end
$var reg 1 8 MemWrite_E $end
$var reg 1 6 PCSrc $end
$var reg 1 0 RegWrite_E $end
$var reg 3 U ResultSrc [2:0] $end
$upscope $end
$upscope $end
$scope module Data_Memory $end
$var wire 32 V A [31:0] $end
$var wire 1 8 WE $end
$var wire 1 ) clk $end
$var wire 1 * rst $end
$var wire 32 W WD [31:0] $end
$var wire 32 X RD [31:0] $end
$upscope $end
$scope module Instruction_Memory $end
$var wire 1 * rst $end
$var wire 32 Y ReadData [31:0] $end
$var wire 32 Z Address [31:0] $end
$upscope $end
$scope module Mux_Register_to_ALU $end
$var wire 1 ; sel $end
$var wire 32 [ out [31:0] $end
$var wire 32 \ in_2 [31:0] $end
$var wire 32 ] in_1 [31:0] $end
$upscope $end
$scope module NPC $end
$var wire 1 6 PCSrc $end
$var wire 32 ^ PCPLUS4 [31:0] $end
$var wire 32 _ PC [31:0] $end
$var wire 32 ` IMMEXT [31:0] $end
$var reg 32 a NPC [31:0] $end
$upscope $end
$scope module PC $end
$var wire 32 b NPC [31:0] $end
$var wire 1 ) clk $end
$var wire 1 * rst $end
$var reg 32 c PC [31:0] $end
$upscope $end
$scope module Register_File $end
$var wire 5 d Address1 [4:0] $end
$var wire 5 e Address2 [4:0] $end
$var wire 5 f Address3 [4:0] $end
$var wire 32 g RD1 [31:0] $end
$var wire 32 h RD2 [31:0] $end
$var wire 32 i WD3 [31:0] $end
$var wire 1 0 WriteEnable3 $end
$var wire 1 ) clk $end
$var wire 1 * rst $end
$var integer 32 j i [31:0] $end
$upscope $end
$scope module Sign_Extend $end
$var wire 3 k Imm_src [2:0] $end
$var wire 32 l Ins [31:0] $end
$var reg 32 m ImmExt [31:0] $end
$upscope $end
$upscope $end
$scope begin repeat_loop $end
$upscope $end
$scope task decode_instruction $end
$var reg 3 n funct3 [2:0] $end
$var reg 7 o funct7 [6:0] $end
$var reg 32 p instr [31:0] $end
$var reg 7 q opcode [6:0] $end
$var reg 32 r pc [31:0] $end
$var reg 5 s rd [4:0] $end
$var reg 5 t rs1 [4:0] $end
$var reg 5 u rs2 [4:0] $end
$upscope $end
$scope task display_registers $end
$var integer 32 v i [31:0] $end
$upscope $end
$upscope $end
$enddefinitions $end
$comment Show the parameter values. $end
$dumpall
$end
#0
$dumpvars
bx v
bx u
bx t
bx s
bx r
bx q
bx p
bx o
bx n
b0 m
b0 l
b0 k
b100000 j
b0 i
b0 h
b0 g
b0 f
b0 e
b0 d
bx c
bx b
bx a
b0 `
bx _
bx ^
b0 ]
b0 \
b0 [
bx Z
b0 Y
b0 X
b0 W
b0 V
b0 U
b0 T
b10 S
b0 R
b0 Q
b0 P
b0 O
b100 N
b10 M
b0 L
b0 K
b0 J
b100 I
b10 H
b0 G
b0 F
b0 E
b0 D
b0 C
b0 B
b0 A
b0 @
b100 ?
b0 >
b100 =
b0 <
0;
b0 :
b0 9
08
bx 7
06
bx 5
b0 4
b0 3
b0 2
b0 1
00
b0 /
b0 .
b0 -
1,
b0 +
0*
0)
b0 (
b0 '
b0 &
b0 %
b0 $
0#
bx "
0!
$end
#5000
b100 7
b100 a
b100 b
b100 ^
b0 "
b0 5
b0 Z
b0 _
b0 c
b100000 j
1)
#10000
0)
#15000
b1010 (
b1010 /
b1010 i
0,
b1010 <
b1010 A
b1010 V
b1010 -
b1010 >
b1010 [
1;
1#
10
b1010 $
b1010 9
b1010 \
b1010 `
b1010 m
b10011 P
b10011 F
b10011 L
b1 f
b1010 e
b101000000000000010010011 %
b101000000000000010010011 2
b101000000000000010010011 D
b101000000000000010010011 O
b101000000000000010010011 Y
b101000000000000010010011 l
b1000 7
b1000 a
b1000 b
b1000 ^
b100 "
b100 5
b100 Z
b100 _
b100 c
bx 1
bx X
1)
1*
#16000
b0 o
b0 n
b1010 u
b0 t
b1 s
b10011 q
b101000000000000010010011 p
b100 r
#20000
0)
#25000
b101 (
b101 /
b101 i
b101 <
b101 A
b101 V
b101 -
b101 >
b101 [
b101 $
b101 9
b101 \
b101 `
b101 m
b10 f
b101 e
b10100000000000100010011 %
b10100000000000100010011 2
b10100000000000100010011 D
b10100000000000100010011 O
b10100000000000100010011 Y
b10100000000000100010011 l
b1100 7
b1100 a
b1100 b
b1100 ^
b1000 "
b1000 5
b1000 Z
b1000 _
b1000 c
1)
#26000
b101 u
b10 s
b10100000000000100010011 p
b1000 r
b1 +
b100000 v
#30000
0)
#35000
b1111 (
b1111 /
b1111 i
b1111 <
b1111 A
b1111 V
b1111 -
b1111 >
b1111 [
b1111 $
b1111 9
b1111 \
b1111 `
b1111 m
b11 f
b1111 e
b111100000000000110010011 %
b111100000000000110010011 2
b111100000000000110010011 D
b111100000000000110010011 O
b111100000000000110010011 Y
b111100000000000110010011 l
b10000 7
b10000 a
b10000 b
b10000 ^
b1100 "
b1100 5
b1100 Z
b1100 _
b1100 c
1)
#36000
b10 +
b100000 v
#40000
b1111 u
b11 s
b111100000000000110010011 p
b1100 r
0)
#45000
b101 -
b101 >
b101 [
b1 H
b1 M
b1 S
0;
b10 $
b10 9
b10 \
b10 `
b10 m
b1111 (
b1111 /
b1111 i
b1111 <
b1111 A
b1111 V
b110011 P
b110011 F
b110011 L
b100 f
b101 '
b101 3
b101 W
b101 ]
b101 h
b10 e
b1010 &
b1010 4
b1010 @
b1010 g
b1 d
b1000001000001000110011 %
b1000001000001000110011 2
b1000001000001000110011 D
b1000001000001000110011 O
b1000001000001000110011 Y
b1000001000001000110011 l
b10100 7
b10100 a
b10100 b
b10100 ^
b10000 "
b10000 5
b10000 Z
b10000 _
b10000 c
1)
#46000
b11 +
b100000 v
#50000
b10 u
b1 t
b100 s
b110011 q
b1000001000001000110011 p
b10000 r
0)
#55000
b10000000010 $
b10000000010 9
b10000000010 \
b10000000010 `
b10000000010 m
b101 (
b101 /
b101 i
b101 <
b101 A
b101 V
b110 =
b110 ?
b110 I
b110 N
b100000 Q
b100000 C
b100000 K
b101 f
b1000000001000001000001010110011 %
b1000000001000001000001010110011 2
b1000000001000001000001010110011 D
b1000000001000001000001010110011 O
b1000000001000001000001010110011 Y
b1000000001000001000001010110011 l
b11000 7
b11000 a
b11000 b
b11000 ^
b10100 "
b10100 5
b10100 Z
b10100 _
b10100 c
1)
#56000
b100 +
b100000 v
#60000
b100000 o
b101 s
b1000000001000001000001010110011 p
b10100 r
0)
#65000
b10 $
b10 9
b10 \
b10 `
b10 m
b0 (
b0 /
b0 i
1,
b0 <
b0 A
b0 V
b111 =
b111 ?
b111 I
b111 N
b0 Q
b111 R
b0 C
b0 K
b111 B
b111 J
b110 f
b1000001111001100110011 %
b1000001111001100110011 2
b1000001111001100110011 D
b1000001111001100110011 O
b1000001111001100110011 Y
b1000001111001100110011 l
b11100 7
b11100 a
b11100 b
b11100 ^
b11000 "
b11000 5
b11000 Z
b11000 _
b11000 c
1)
#66000
b101 +
b100000 v
#70000
b0 o
b111 n
b110 s
b1000001111001100110011 p
b11000 r
0)
#75000
b1111 (
b1111 /
b1111 i
0,
b1111 <
b1111 A
b1111 V
b1000 =
b1000 ?
b1000 I
b1000 N
b110 R
b110 B
b110 J
b111 f
b1000001110001110110011 %
b1000001110001110110011 2
b1000001110001110110011 D
b1000001110001110110011 O
b1000001110001110110011 Y
b1000001110001110110011 l
b100000 7
b100000 a
b100000 b
b100000 ^
b11100 "
b11100 5
b11100 Z
b11100 _
b11100 c
1)
#76000
b110 +
b100000 v
#80000
b110 n
b111 s
b1000001110001110110011 p
b11100 r
0)
#85000
b1001 =
b1001 ?
b1001 I
b1001 N
b100 R
b100 B
b100 J
b1000 f
b1000001100010000110011 %
b1000001100010000110011 2
b1000001100010000110011 D
b1000001100010000110011 O
b1000001100010000110011 Y
b1000001100010000110011 l
b100100 7
b100100 a
b100100 b
b100100 ^
b100000 "
b100000 5
b100000 Z
b100000 _
b100000 c
1)
#86000
b111 +
b100000 v
#90000
b100 n
b1000 s
b1000001100010000110011 p
b100000 r
0)
#95000
b10 H
b10 M
b10 S
1;
b111 $
b111 9
b111 \
b111 `
b111 m
b111 (
b111 /
b111 i
b111 =
b111 ?
b111 I
b111 N
b111 -
b111 >
b111 [
b111 <
b111 A
b111 V
b111 R
b10011 P
b10011 F
b10011 L
b111 B
b111 J
b1001 f
b1111 '
b1111 3
b1111 W
b1111 ]
b1111 h
b111 e
b1111 &
b1111 4
b1111 @
b1111 g
b11 d
b11100011111010010010011 %
b11100011111010010010011 2
b11100011111010010010011 D
b11100011111010010010011 O
b11100011111010010010011 Y
b11100011111010010010011 l
b101000 7
b101000 a
b101000 b
b101000 ^
b100100 "
b100100 5
b100100 Z
b100100 _
b100100 c
1)
#96000
b1000 +
b100000 v
#100000
b111 n
b111 u
b11 t
b1001 s
b10011 q
b11100011111010010010011 p
b100100 r
0)
#105000
b1000 -
b1000 >
b1000 [
b1000 $
b1000 9
b1000 \
b1000 `
b1000 m
b1010 (
b1010 /
b1010 i
b1000 =
b1000 ?
b1000 I
b1000 N
b1010 <
b1010 A
b1010 V
b110 R
b110 B
b110 J
b1010 f
b1000 e
b1010 &
b1010 4
b1010 @
b1010 g
b1 d
b100000001110010100010011 %
b100000001110010100010011 2
b100000001110010100010011 D
b100000001110010100010011 O
b100000001110010100010011 Y
b100000001110010100010011 l
b101100 7
b101100 a
b101100 b
b101100 ^
b101000 "
b101000 5
b101000 Z
b101000 _
b101000 c
1)
#106000
b1001 +
b100000 v
#110000
b110 n
b1000 u
b1 t
b1010 s
b100000001110010100010011 p
b101000 r
0)
#115000
b111 -
b111 >
b111 [
b111 $
b111 9
b111 \
b111 `
b111 m
b1000 (
b1000 /
b1000 i
b1001 =
b1001 ?
b1001 I
b1001 N
b1000 <
b1000 A
b1000 V
b100 R
b100 B
b100 J
b1011 f
b111 e
b1111 &
b1111 4
b1111 @
b1111 g
b11 d
b11100011100010110010011 %
b11100011100010110010011 2
b11100011100010110010011 D
b11100011100010110010011 O
b11100011100010110010011 Y
b11100011100010110010011 l
b110000 7
b110000 a
b110000 b
b110000 ^
b101100 "
b101100 5
b101100 Z
b101100 _
b101100 c
1)
#116000
b1010 +
b100000 v
#120000
b100 n
b111 u
b11 t
b1011 s
b11100011100010110010011 p
b101100 r
0)
#125000
b1 -
b1 >
b1 [
b1 $
b1 9
b1 \
b1 `
b1 m
b10100 (
b10100 /
b10100 i
b1 =
b1 ?
b1 I
b1 N
b10100 <
b10100 A
b10100 V
b1 R
b1 B
b1 J
b1100 f
b1010 '
b1010 3
b1010 W
b1010 ]
b1010 h
b1 e
b1010 &
b1010 4
b1010 @
b1010 g
b1 d
b100001001011000010011 %
b100001001011000010011 2
b100001001011000010011 D
b100001001011000010011 O
b100001001011000010011 Y
b100001001011000010011 l
b110100 7
b110100 a
b110100 b
b110100 ^
b110000 "
b110000 5
b110000 Z
b110000 _
b110000 c
1)
#126000
b1011 +
b100000 v
#130000
b1 n
b1 u
b1 t
b1100 s
b100001001011000010011 p
b110000 r
0)
#135000
b111 (
b111 /
b111 i
b10 =
b10 ?
b10 I
b10 N
b111 <
b111 A
b111 V
b101 R
b101 B
b101 J
b1101 f
b1111 &
b1111 4
b1111 @
b1111 g
b11 d
b100011101011010010011 %
b100011101011010010011 2
b100011101011010010011 D
b100011101011010010011 O
b100011101011010010011 Y
b100011101011010010011 l
b111000 7
b111000 a
b111000 b
b111000 ^
b110100 "
b110100 5
b110100 Z
b110100 _
b110100 c
1)
#136000
b1100 +
b100000 v
#140000
b101 n
b11 t
b1101 s
b100011101011010010011 p
b110100 r
0)
#145000
b10000000001 -
b10000000001 >
b10000000001 [
b10000000001 $
b10000000001 9
b10000000001 \
b10000000001 `
b10000000001 m
b101 (
b101 /
b101 i
b11 =
b11 ?
b11 I
b11 N
b101 <
b101 A
b101 V
b100000 Q
b100000 C
b100000 K
b1110 f
b1010 &
b1010 4
b1010 @
b1010 g
b1 d
b1000000000100001101011100010011 %
b1000000000100001101011100010011 2
b1000000000100001101011100010011 D
b1000000000100001101011100010011 O
b1000000000100001101011100010011 Y
b1000000000100001101011100010011 l
b111100 7
b111100 a
b111100 b
b111100 ^
b111000 "
b111000 5
b111000 Z
b111000 _
b111000 c
1)
#146000
b1101 +
b100000 v
#150000
b100000 o
b1 t
b1110 s
b1000000000100001101011100010011 p
b111000 r
0)
#155000
0,
b1010 -
b1010 >
b1010 [
b1 H
b1 M
b1 S
0;
b1 $
b1 9
b1 \
b1 `
b1 m
b1 (
b1 /
b1 i
b1011 =
b1011 ?
b1011 I
b1011 N
b1 <
b1 A
b1 V
b0 Q
b10 R
b110011 P
b110011 F
b110011 L
b0 C
b0 K
b10 B
b10 J
b1111 f
b101 &
b101 4
b101 @
b101 g
b10 d
b100010010011110110011 %
b100010010011110110011 2
b100010010011110110011 D
b100010010011110110011 O
b100010010011110110011 Y
b100010010011110110011 l
b1000000 7
b1000000 a
b1000000 b
b1000000 ^
b111100 "
b111100 5
b111100 Z
b111100 _
b111100 c
1)
#156000
b1110 +
b100000 v
#160000
b0 o
b10 n
b10 t
b1111 s
b110011 q
b100010010011110110011 p
b111100 r
0)
#165000
b10 $
b10 9
b10 \
b10 `
b10 m
b0 (
b0 /
b0 i
b1010 =
b1010 ?
b1010 I
b1010 N
b101 -
b101 >
b101 [
1,
b0 <
b0 A
b0 V
b11 R
b11 B
b11 J
b10000 f
b101 '
b101 3
b101 W
b101 ]
b101 h
b10 e
b1010 &
b1010 4
b1010 @
b1010 g
b1 d
b1000001011100000110011 %
b1000001011100000110011 2
b1000001011100000110011 D
b1000001011100000110011 O
b1000001011100000110011 Y
b1000001011100000110011 l
b1000100 7
b1000100 a
b1000100 b
b1000100 ^
b1000000 "
b1000000 5
b1000000 Z
b1000000 _
b1000000 c
1)
#166000
b1111 +
b100000 v
#170000
b11 n
b10 u
b1 t
b10000 s
b1000001011100000110011 p
b1000000 r
0)
#175000
b1 (
b1 /
b1 i
0,
b1 <
b1 A
b1 V
b10 H
b10 M
b10 S
1;
b1111 $
b1111 9
b1111 \
b1111 `
b1111 m
b1011 =
b1011 ?
b1011 I
b1011 N
b1111 -
b1111 >
b1111 [
b10 R
b10011 P
b10011 F
b10011 L
b10 B
b10 J
b10001 f
b1 '
b1 3
b1 W
b1 ]
b1 h
b1111 e
b111100001010100010010011 %
b111100001010100010010011 2
b111100001010100010010011 D
b111100001010100010010011 O
b111100001010100010010011 Y
b111100001010100010010011 l
b1001000 7
b1001000 a
b1001000 b
b1001000 ^
b1000100 "
b1000100 5
b1000100 Z
b1000100 _
b1000100 c
1)
#176000
b10000 +
b100000 v
#180000
b10 n
b1111 u
b10001 s
b10011 q
b111100001010100010010011 p
b1000100 r
0)
#185000
b0 (
b0 /
b0 i
1,
b0 <
b0 A
b0 V
b11 -
b11 >
b11 [
b11 $
b11 9
b11 \
b11 `
b11 m
b1010 =
b1010 ?
b1010 I
b1010 N
b11 R
b11 B
b11 J
b10010 f
b1111 '
b1111 3
b1111 W
b1111 ]
b1111 h
b11 e
b101 &
b101 4
b101 @
b101 g
b10 d
b1100010011100100010011 %
b1100010011100100010011 2
b1100010011100100010011 D
b1100010011100100010011 O
b1100010011100100010011 Y
b1100010011100100010011 l
b1001100 7
b1001100 a
b1001100 b
b1001100 ^
b1001000 "
b1001000 5
b1001000 Z
b1001000 _
b1001000 c
1)
#186000
b10001 +
b100000 v
#190000
b11 n
b11 u
b10 t
b10010 s
b1100010011100100010011 p
b1001000 r
0)
#195000
b1000000000000 -
b1000000000000 >
b1000000000000 [
b100 H
b100 M
b100 S
b11 .
b11 E
b11 U
b11 :
b11 G
b11 T
b11 k
b1000000000000 $
b1000000000000 9
b1000000000000 \
b1000000000000 `
b1000000000000 m
b1000000000000 (
b1000000000000 /
b1000000000000 i
b0 =
b0 ?
b0 I
b0 N
1,
b0 <
b0 A
b0 V
b1 R
b110111 P
b110111 F
b110111 L
b1 B
b1 J
b10011 f
b0 '
b0 3
b0 W
b0 ]
b0 h
b0 e
b0 &
b0 4
b0 @
b0 g
b0 d
b1100110110111 %
b1100110110111 2
b1100110110111 D
b1100110110111 O
b1100110110111 Y
b1100110110111 l
b1010000 7
b1010000 a
b1010000 b
b1010000 ^
b1001100 "
b1001100 5
b1001100 Z
b1001100 _
b1001100 c
1)
#196000
b10010 +
b100000 v
#200000
b1 n
b0 u
b0 t
b10011 s
b110111 q
b1100110110111 p
b1001100 r
0)
#205000
bx (
bx /
bx i
0,
b1100100 <
b1100100 A
b1100100 V
b100 =
b100 ?
b100 I
b100 N
b1100100 -
b1100100 >
b1100100 [
b0 H
b0 M
b0 S
b1 .
b1 E
b1 U
1!
18
b1 :
b1 G
b1 T
b1 k
0#
00
b1100100 $
b1100100 9
b1100100 \
b1100100 `
b1100100 m
b11 Q
b10 R
b100011 P
b100011 F
b100011 L
b11 C
b11 K
b10 B
b10 J
b100 f
b1111 '
b1111 3
b1111 W
b1111 ]
b1111 h
b100 e
b110010000000010001000100011 %
b110010000000010001000100011 2
b110010000000010001000100011 D
b110010000000010001000100011 O
b110010000000010001000100011 Y
b110010000000010001000100011 l
b1010100 7
b1010100 a
b1010100 b
b1010100 ^
b1010000 "
b1010000 5
b1010000 Z
b1010000 _
b1010000 c
1)
#206000
b10011 +
#210000
b11 o
b10 n
b100 u
b100 s
b100011 q
b110010000000010001000100011 p
b1010000 r
0)
#215000
b1101000 <
b1101000 A
b1101000 V
b1101000 -
b1101000 >
b1101000 [
b1101000 $
b1101000 9
b1101000 \
b1101000 `
b1101000 m
bx (
bx /
bx i
b1000 f
b101 '
b101 3
b101 W
b101 ]
b101 h
b101 e
b110010100000010010000100011 %
b110010100000010010000100011 2
b110010100000010010000100011 D
b110010100000010010000100011 O
b110010100000010010000100011 Y
b110010100000010010000100011 l
bx 1
bx X
b1011000 7
b1011000 a
b1011000 b
b1011000 ^
b1010100 "
b1010100 5
b1010100 Z
b1010100 _
b1010100 c
1)
#216000
b10100 +
#220000
b101 u
b1000 s
b110010100000010010000100011 p
b1010100 r
0)
#225000
b1100100 <
b1100100 A
b1100100 V
b1100100 -
b1100100 >
b1100100 [
0!
08
b0 :
b0 G
b0 T
b0 k
1#
10
b1100100 $
b1100100 9
b1100100 \
b1100100 `
b1100100 m
b11 P
b11 F
b11 L
b10100 f
b1111 '
b1111 3
b1111 W
b1111 ]
b1111 h
b100 e
b1111 (
b1111 /
b1111 i
b110010000000010101000000011 %
b110010000000010101000000011 2
b110010000000010101000000011 D
b110010000000010101000000011 O
b110010000000010101000000011 Y
b110010000000010101000000011 l
b1011100 7
b1011100 a
b1011100 b
b1111 1
b1111 X
b1011100 ^
b1011000 "
b1011000 5
b1011000 Z
b1011000 _
b1011000 c
1)
#226000
b10101 +
b100000 v
#230000
b100 u
b10100 s
b11 q
b110010000000010101000000011 p
b1011000 r
0)
#235000
b101 (
b101 /
b101 i
b101 1
b101 X
b1101000 <
b1101000 A
b1101000 V
b1101000 -
b1101000 >
b1101000 [
b1101000 $
b1101000 9
b1101000 \
b1101000 `
b1101000 m
b10101 f
b1000 e
b110100000000010101010000011 %
b110100000000010101010000011 2
b110100000000010101010000011 D
b110100000000010101010000011 O
b110100000000010101010000011 Y
b110100000000010101010000011 l
b1100000 7
b1100000 a
b1100000 b
b1100000 ^
b1011100 "
b1011100 5
b1011100 Z
b1011100 _
b1011100 c
1)
#236000
b10110 +
b100000 v
#240000
b1000 u
b10101 s
b110100000000010101010000011 p
b1011100 r
0)
#245000
16
1,
b1001 =
b1001 ?
b1001 I
b1001 N
b1111 -
b1111 >
b1111 [
b11 H
b11 M
b11 S
b0 .
b0 E
b0 U
0;
b10 :
b10 G
b10 T
b10 k
0#
00
b1100 $
b1100 9
b1100 \
b1100 `
b1100 m
b0 (
b0 /
b0 i
bx 1
bx X
b0 <
b0 A
b0 V
b0 Q
b0 R
b1100011 P
b1100011 F
b1100011 L
b0 C
b0 K
b0 B
b0 J
b1100 f
b100 e
b1111 &
b1111 4
b1111 @
b1111 g
b10100 d
b10010100000011001100011 %
b10010100000011001100011 2
b10010100000011001100011 D
b10010100000011001100011 O
b10010100000011001100011 Y
b10010100000011001100011 l
b1101100 7
b1101100 a
b1101100 b
b1100100 ^
b1100000 "
b1100000 5
b1100000 Z
b1100000 _
b1100000 c
1)
#246000
b10111 +
#250000
b0 o
b0 n
b100 u
b10100 t
b1100 s
b1100011 q
b10010100000011001100011 p
b1100000 r
0)
#255000
b100 =
b100 ?
b100 I
b100 N
06
b10 H
b10 M
b10 S
1;
b0 :
b0 G
b0 T
b0 k
1#
10
b101010 $
b101010 9
b101010 \
b101010 `
b101010 m
b101010 (
b101010 /
b101010 i
b101010 -
b101010 >
b101010 [
0,
b101010 <
b101010 A
b101010 V
b1 Q
b10011 P
b10011 F
b10011 L
b1 C
b1 K
b10110 f
b1010 '
b1010 3
b1010 W
b1010 ]
b1010 h
b1010 e
b0 &
b0 4
b0 @
b0 g
b0 d
b10101000000000101100010011 %
b10101000000000101100010011 2
b10101000000000101100010011 D
b10101000000000101100010011 O
b10101000000000101100010011 Y
b10101000000000101100010011 l
b1110000 7
b1110000 a
b1110000 b
b1110000 ^
b1101100 "
b1101100 5
b1101100 Z
b1101100 _
b1101100 c
1)
#256000
b11000 +
b100000 v
#260000
b1 o
b1010 u
b0 t
b10110 s
b10011 q
b10101000000000101100010011 p
b1101100 r
0)
#265000
b1110100 (
b1110100 /
b1110100 i
1,
b0 <
b0 A
b0 V
b0 =
b0 ?
b0 I
b0 N
b11000 -
b11000 >
b11000 [
16
b100 H
b100 M
b100 S
b10 .
b10 E
b10 U
b100 :
b100 G
b100 T
b100 k
b11000 $
b11000 9
b11000 \
b11000 `
b11000 m
b0 Q
b1101111 P
b1101111 F
b1101111 L
b0 C
b0 K
b10111 f
b0 '
b0 3
b0 W
b0 ]
b0 h
b11000 e
b1100000000000101111101111 %
b1100000000000101111101111 2
b1100000000000101111101111 D
b1100000000000101111101111 O
b1100000000000101111101111 Y
b1100000000000101111101111 l
b10001000 7
b10001000 a
b10001000 b
b1110100 ^
b1110000 "
b1110000 5
b1110000 Z
b1110000 _
b1110000 c
1)
#266000
b11001 +
b100000 v
#270000
b0 o
b11000 u
b10111 s
b1101111 q
b1100000000000101111101111 p
b1110000 r
0)
#275000
0,
b11001000 <
b11001000 A
b11001000 V
b100 =
b100 ?
b100 I
b100 N
b11001000 -
b11001000 >
b11001000 [
06
b10 H
b10 M
b10 S
b0 .
b0 E
b0 U
b0 :
b0 G
b0 T
b0 k
b11001000 $
b11001000 9
b11001000 \
b11001000 `
b11001000 m
b110 Q
b10011 P
b10011 F
b10011 L
b110 C
b110 K
b11001 f
b1111 '
b1111 3
b1111 W
b1111 ]
b1111 h
b1000 e
b11001000 (
b11001000 /
b11001000 i
b1100100000000000110010010011 %
b1100100000000000110010010011 2
b1100100000000000110010010011 D
b1100100000000000110010010011 O
b1100100000000000110010010011 Y
b1100100000000000110010010011 l
b10001100 7
b10001100 a
b10001100 b
b10001100 ^
b10001000 "
b10001000 5
b10001000 Z
b10001000 _
b10001000 c
1)
#276000
b11010 +
b100000 v
#280000
b110 o
b1000 u
b11001 s
b10011 q
b1100100000000000110010010011 p
b10001000 r
0)
#285000
bx -
bx >
bx [
0;
0#
00
bx $
bx 9
bx \
bx `
bx m
bx (
bx /
bx i
b0 =
b0 ?
b0 I
b0 N
x,
bx <
bx A
bx V
bx Q
bx R
bx P
bx F
bx L
bx C
bx K
bx B
bx J
bx f
bx '
bx 3
bx W
bx ]
bx h
bx e
bx &
bx 4
bx @
bx g
bx d
bx %
bx 2
bx D
bx O
bx Y
bx l
b10010000 7
b10010000 a
b10010000 b
b10010000 ^
b10001100 "
b10001100 5
b10001100 Z
b10001100 _
b10001100 c
1)
#286000
b100000 v
b11011 +
