testbench/Single_Cycle_Top_tb.vcd
$date
	Fri Dec  5 20:14:52 2025
$end
$version
	Icarus Verilog
$end
$timescale
	1ps
$end
$scope module Single_Cycle_Top_tb $end
$var wire 1 ! MemWrite $end
$var wire 32 " PC_current [31:0] $end
$var wire 1 # RegWrite $end
$var wire 32 $ alu_result [31:0] $end
$var wire 32 % immediate [31:0] $end
$var wire 32 & instruction [31:0] $end
$var wire 32 ' memory_read_data [31:0] $end
$var wire 32 ( reg_data1 [31:0] $end
$var wire 32 ) reg_data2 [31:0] $end
$var wire 32 * reg_write_data [31:0] $end
$var wire 3 + result_src [2:0] $end
$var reg 1 , clk $end
$var reg 1 - rst $end
$var integer 32 . cycle_count [31:0] $end
$scope module cpu $end
$var wire 1 , clk $end
$var wire 1 - rst $end
$var wire 1 / Zero $end
$var wire 32 0 SrcB [31:0] $end
$var wire 3 1 ResultSrc [2:0] $end
$var wire 32 2 Result [31:0] $end
$var wire 1 3 RegWrite $end
$var wire 32 4 ReadData [31:0] $end
$var wire 32 5 RD_Instr [31:0] $end
$var wire 32 6 RD2_Top [31:0] $end
$var wire 32 7 RD1_Top [31:0] $end
$var wire 32 8 PC_Top [31:0] $end
$var wire 1 9 PCSrc $end
$var wire 32 : PCPlus4 [31:0] $end
$var wire 1 ; MemWrite $end
$var wire 32 < Imm_Ext_Top [31:0] $end
$var wire 3 = ImmSrc [2:0] $end
$var wire 1 > ALUSrc $end
$var wire 32 ? ALUResult [31:0] $end
$var wire 4 @ ALUControl_Top [3:0] $end
$scope module ALU $end
$var wire 1 / Zero $end
$var wire 32 A B [31:0] $end
$var wire 4 B ALUControl [3:0] $end
$var wire 32 C A [31:0] $end
$var reg 32 D Result [31:0] $end
$upscope $end
$scope module Controller $end
$var wire 1 / Zero $end
$var wire 3 E funct3 [2:0] $end
$var wire 7 F funct7 [6:0] $end
$var wire 32 G inst [31:0] $end
$var wire 3 H ResultSrc [2:0] $end
$var wire 1 3 RegWrite_E $end
$var wire 1 9 PCSrc $end
$var wire 7 I Op [6:0] $end
$var wire 1 ; MemWrite_E $end
$var wire 3 J ImmSrc [2:0] $end
$var wire 1 > ALUSrc $end
$var wire 3 K ALUOp [2:0] $end
$var wire 4 L ALUControl [3:0] $end
$scope module alu_decoder $end
$var wire 3 M funct3 [2:0] $end
$var wire 7 N funct7 [6:0] $end
$var wire 7 O op [6:0] $end
$var wire 3 P ALUOp [2:0] $end
$var reg 4 Q ALUControl [3:0] $end
$upscope $end
$scope module main_decoder $end
$var wire 1 / Zero $end
$var wire 32 R inst [31:0] $end
$var wire 7 S Op [6:0] $end
$var wire 7 T Funct7 [6:0] $end
$var wire 3 U Funct3 [2:0] $end
$var reg 3 V ALUOp [2:0] $end
$var reg 1 > ALUSrc $end
$var reg 3 W ImmSrc [2:0] $end
$var reg 1 ; MemWrite_E $end
$var reg 1 9 PCSrc $end
$var reg 1 3 RegWrite_E $end
$var reg 3 X ResultSrc [2:0] $end
$upscope $end
$upscope $end
$scope module Data_Memory $end
$var wire 32 Y A [31:0] $end
$var wire 1 ; WE $end
$var wire 1 , clk $end
$var wire 1 - rst $end
$var wire 32 Z WD [31:0] $end
$var wire 32 [ RD [31:0] $end
$upscope $end
$scope module Instruction_Memory $end
$var wire 1 - rst $end
$var wire 32 \ ReadData [31:0] $end
$var wire 32 ] Address [31:0] $end
$upscope $end
$scope module Mux_Register_to_ALU $end
$var wire 1 > sel $end
$var wire 32 ^ out [31:0] $end
$var wire 32 _ in_2 [31:0] $end
$var wire 32 ` in_1 [31:0] $end
$upscope $end
$scope module NPC $end
$var wire 1 9 PCSrc $end
$var wire 32 a PCPLUS4 [31:0] $end
$var wire 32 b PC [31:0] $end
$var wire 32 c IMMEXT [31:0] $end
$var reg 32 d NPC [31:0] $end
$upscope $end
$scope module PC $end
$var wire 32 e NPC [31:0] $end
$var wire 1 , clk $end
$var wire 1 - rst $end
$var reg 32 f PC [31:0] $end
$upscope $end
$scope module Register_File $end
$var wire 5 g Address1 [4:0] $end
$var wire 5 h Address2 [4:0] $end
$var wire 5 i Address3 [4:0] $end
$var wire 32 j RD1 [31:0] $end
$var wire 32 k RD2 [31:0] $end
$var wire 32 l WD3 [31:0] $end
$var wire 1 3 WriteEnable3 $end
$var wire 1 , clk $end
$var wire 1 - rst $end
$var integer 32 m i [31:0] $end
$upscope $end
$scope module Sign_Extend $end
$var wire 3 n Imm_src [2:0] $end
$var wire 32 o Ins [31:0] $end
$var reg 32 p ImmExt [31:0] $end
$upscope $end
$upscope $end
$scope begin repeat_loop $end
$upscope $end
$scope task decode_instruction $end
$var reg 3 q funct3 [2:0] $end
$var reg 7 r funct7 [6:0] $end
$var reg 32 s instr [31:0] $end
$var reg 7 t opcode [6:0] $end
$var reg 32 u pc [31:0] $end
$var reg 5 v rd [4:0] $end
$var reg 5 w rs1 [4:0] $end
$var reg 5 x rs2 [4:0] $end
$upscope $end
$scope task display_registers $end
$var integer 32 y i [31:0] $end
$upscope $end
$upscope $end
$enddefinitions $end
$comment Show the parameter values. $end
$dumpall
$end
#0
$dumpvars
bx y
bx x
bx w
bx v
bx u
bx t
bx s
bx r
bx q
b0 p
b0 o
b0 n
b100000 m
b0 l
b0 k
b0 j
b0 i
b0 h
b0 g
bx f
bx e
bx d
b0 c
bx b
bx a
b0 `
b0 _
b0 ^
bx ]
b0 \
b0 [
b0 Z
b0 Y
b0 X
b0 W
b10 V
b0 U
b0 T
b0 S
b0 R
b100 Q
b10 P
b0 O
b0 N
b0 M
b100 L
b10 K
b0 J
b0 I
b0 H
b0 G
b0 F
b0 E
b0 D
b0 C
b100 B
b0 A
b100 @
b0 ?
0>
b0 =
b0 <
0;
bx :
09
bx 8
b0 7
b0 6
b0 5
b0 4
03
b0 2
b0 1
b0 0
1/
b0 .
0-
0,
b0 +
b0 *
b0 )
b0 (
b0 '
b0 &
b0 %
b0 $
0#
bx "
0!
$end
#5000
b100 :
b100 d
b100 e
b100 a
b0 "
b0 8
b0 ]
b0 b
b0 f
b100000 m
1,
#10000
0,
#15000
b1010 *
b1010 2
b1010 l
0/
b1010 $
b1010 ?
b1010 D
b1010 Y
b1010 0
b1010 A
b1010 ^
1>
1#
13
b1010 %
b1010 <
b1010 _
b1010 c
b1010 p
b10011 S
b10011 I
b10011 O
b1 i
b1010 h
b101000000000000010010011 &
b101000000000000010010011 5
b101000000000000010010011 G
b101000000000000010010011 R
b101000000000000010010011 \
b101000000000000010010011 o
b1000 :
b1000 d
b1000 e
b1000 a
b100 "
b100 8
b100 ]
b100 b
b100 f
bx '
bx 4
bx [
1,
1-
#16000
b0 r
b0 q
b1010 x
b0 w
b1 v
b10011 t
b101000000000000010010011 s
b100 u
#20000
0,
#25000
b101 *
b101 2
b101 l
b101 $
b101 ?
b101 D
b101 Y
b101 0
b101 A
b101 ^
b101 %
b101 <
b101 _
b101 c
b101 p
b10 i
b101 h
b10100000000000100010011 &
b10100000000000100010011 5
b10100000000000100010011 G
b10100000000000100010011 R
b10100000000000100010011 \
b10100000000000100010011 o
b1100 :
b1100 d
b1100 e
b1100 a
b1000 "
b1000 8
b1000 ]
b1000 b
b1000 f
1,
#26000
b101 x
b10 v
b10100000000000100010011 s
b1000 u
b1 .
b100000 y
#30000
0,
#35000
b1111 *
b1111 2
b1111 l
b1111 $
b1111 ?
b1111 D
b1111 Y
b1111 0
b1111 A
b1111 ^
b1111 %
b1111 <
b1111 _
b1111 c
b1111 p
b11 i
b1111 h
b111100000000000110010011 &
b111100000000000110010011 5
b111100000000000110010011 G
b111100000000000110010011 R
b111100000000000110010011 \
b111100000000000110010011 o
b10000 :
b10000 d
b10000 e
b10000 a
b1100 "
b1100 8
b1100 ]
b1100 b
b1100 f
1,
#36000
b10 .
b100000 y
#40000
b1111 x
b11 v
b111100000000000110010011 s
b1100 u
0,
#45000
b101 0
b101 A
b101 ^
b1 K
b1 P
b1 V
0>
b10 %
b10 <
b10 _
b10 c
b10 p
b1111 *
b1111 2
b1111 l
b1111 $
b1111 ?
b1111 D
b1111 Y
b110011 S
b110011 I
b110011 O
b100 i
b101 )
b101 6
b101 Z
b101 `
b101 k
b10 h
b1010 (
b1010 7
b1010 C
b1010 j
b1 g
b1000001000001000110011 &
b1000001000001000110011 5
b1000001000001000110011 G
b1000001000001000110011 R
b1000001000001000110011 \
b1000001000001000110011 o
b10100 :
b10100 d
b10100 e
b10100 a
b10000 "
b10000 8
b10000 ]
b10000 b
b10000 f
1,
#46000
b11 .
b100000 y
#50000
b10 x
b1 w
b100 v
b110011 t
b1000001000001000110011 s
b10000 u
0,
#55000
b10000000010 %
b10000000010 <
b10000000010 _
b10000000010 c
b10000000010 p
b101 *
b101 2
b101 l
b101 $
b101 ?
b101 D
b101 Y
b110 @
b110 B
b110 L
b110 Q
b100000 T
b100000 F
b100000 N
b101 i
b1000000001000001000001010110011 &
b1000000001000001000001010110011 5
b1000000001000001000001010110011 G
b1000000001000001000001010110011 R
b1000000001000001000001010110011 \
b1000000001000001000001010110011 o
b11000 :
b11000 d
b11000 e
b11000 a
b10100 "
b10100 8
b10100 ]
b10100 b
b10100 f
1,
#56000
b100 .
b100000 y
#60000
b100000 r
b101 v
b1000000001000001000001010110011 s
b10100 u
0,
#65000
b10 %
b10 <
b10 _
b10 c
b10 p
b0 *
b0 2
b0 l
1/
b0 $
b0 ?
b0 D
b0 Y
b111 @
b111 B
b111 L
b111 Q
b0 T
b111 U
b0 F
b0 N
b111 E
b111 M
b110 i
b1000001111001100110011 &
b1000001111001100110011 5
b1000001111001100110011 G
b1000001111001100110011 R
b1000001111001100110011 \
b1000001111001100110011 o
b11100 :
b11100 d
b11100 e
b11100 a
b11000 "
b11000 8
b11000 ]
b11000 b
b11000 f
1,
#66000
b101 .
b100000 y
#70000
b0 r
b111 q
b110 v
b1000001111001100110011 s
b11000 u
0,
#75000
b1111 *
b1111 2
b1111 l
0/
b1111 $
b1111 ?
b1111 D
b1111 Y
b1000 @
b1000 B
b1000 L
b1000 Q
b110 U
b110 E
b110 M
b111 i
b1000001110001110110011 &
b1000001110001110110011 5
b1000001110001110110011 G
b1000001110001110110011 R
b1000001110001110110011 \
b1000001110001110110011 o
b100000 :
b100000 d
b100000 e
b100000 a
b11100 "
b11100 8
b11100 ]
b11100 b
b11100 f
1,
#76000
b110 .
b100000 y
#80000
b110 q
b111 v
b1000001110001110110011 s
b11100 u
0,
#85000
b1001 @
b1001 B
b1001 L
b1001 Q
b100 U
b100 E
b100 M
b1000 i
b1000001100010000110011 &
b1000001100010000110011 5
b1000001100010000110011 G
b1000001100010000110011 R
b1000001100010000110011 \
b1000001100010000110011 o
b100100 :
b100100 d
b100100 e
b100100 a
b100000 "
b100000 8
b100000 ]
b100000 b
b100000 f
1,
#86000
b111 .
b100000 y
#90000
b100 q
b1000 v
b1000001100010000110011 s
b100000 u
0,
#95000
b10 K
b10 P
b10 V
1>
b111 %
b111 <
b111 _
b111 c
b111 p
b111 *
b111 2
b111 l
b111 @
b111 B
b111 L
b111 Q
b111 0
b111 A
b111 ^
b111 $
b111 ?
b111 D
b111 Y
b111 U
b10011 S
b10011 I
b10011 O
b111 E
b111 M
b1001 i
b1111 )
b1111 6
b1111 Z
b1111 `
b1111 k
b111 h
b1111 (
b1111 7
b1111 C
b1111 j
b11 g
b11100011111010010010011 &
b11100011111010010010011 5
b11100011111010010010011 G
b11100011111010010010011 R
b11100011111010010010011 \
b11100011111010010010011 o
b101000 :
b101000 d
b101000 e
b101000 a
b100100 "
b100100 8
b100100 ]
b100100 b
b100100 f
1,
#96000
b1000 .
b100000 y
#100000
b111 q
b111 x
b11 w
b1001 v
b10011 t
b11100011111010010010011 s
b100100 u
0,
#105000
b1000 0
b1000 A
b1000 ^
b1000 %
b1000 <
b1000 _
b1000 c
b1000 p
b1010 *
b1010 2
b1010 l
b1000 @
b1000 B
b1000 L
b1000 Q
b1010 $
b1010 ?
b1010 D
b1010 Y
b110 U
b110 E
b110 M
b1010 i
b1000 h
b1010 (
b1010 7
b1010 C
b1010 j
b1 g
b100000001110010100010011 &
b100000001110010100010011 5
b100000001110010100010011 G
b100000001110010100010011 R
b100000001110010100010011 \
b100000001110010100010011 o
b101100 :
b101100 d
b101100 e
b101100 a
b101000 "
b101000 8
b101000 ]
b101000 b
b101000 f
1,
#106000
b1001 .
b100000 y
#110000
b110 q
b1000 x
b1 w
b1010 v
b100000001110010100010011 s
b101000 u
0,
#115000
b111 0
b111 A
b111 ^
b111 %
b111 <
b111 _
b111 c
b111 p
b1000 *
b1000 2
b1000 l
b1001 @
b1001 B
b1001 L
b1001 Q
b1000 $
b1000 ?
b1000 D
b1000 Y
b100 U
b100 E
b100 M
b1011 i
b111 h
b1111 (
b1111 7
b1111 C
b1111 j
b11 g
b11100011100010110010011 &
b11100011100010110010011 5
b11100011100010110010011 G
b11100011100010110010011 R
b11100011100010110010011 \
b11100011100010110010011 o
b110000 :
b110000 d
b110000 e
b110000 a
b101100 "
b101100 8
b101100 ]
b101100 b
b101100 f
1,
#116000
b1010 .
b100000 y
#120000
b100 q
b111 x
b11 w
b1011 v
b11100011100010110010011 s
b101100 u
0,
#125000
b1 0
b1 A
b1 ^
b1 %
b1 <
b1 _
b1 c
b1 p
b10100 *
b10100 2
b10100 l
b1 @
b1 B
b1 L
b1 Q
b10100 $
b10100 ?
b10100 D
b10100 Y
b1 U
b1 E
b1 M
b1100 i
b1010 )
b1010 6
b1010 Z
b1010 `
b1010 k
b1 h
b1010 (
b1010 7
b1010 C
b1010 j
b1 g
b100001001011000010011 &
b100001001011000010011 5
b100001001011000010011 G
b100001001011000010011 R
b100001001011000010011 \
b100001001011000010011 o
b110100 :
b110100 d
b110100 e
b110100 a
b110000 "
b110000 8
b110000 ]
b110000 b
b110000 f
1,
#126000
b1011 .
b100000 y
#130000
b1 q
b1 x
b1 w
b1100 v
b100001001011000010011 s
b110000 u
0,
#135000
b111 *
b111 2
b111 l
b10 @
b10 B
b10 L
b10 Q
b111 $
b111 ?
b111 D
b111 Y
b101 U
b101 E
b101 M
b1101 i
b1111 (
b1111 7
b1111 C
b1111 j
b11 g
b100011101011010010011 &
b100011101011010010011 5
b100011101011010010011 G
b100011101011010010011 R
b100011101011010010011 \
b100011101011010010011 o
b111000 :
b111000 d
b111000 e
b111000 a
b110100 "
b110100 8
b110100 ]
b110100 b
b110100 f
1,
#136000
b1100 .
b100000 y
#140000
b101 q
b11 w
b1101 v
b100011101011010010011 s
b110100 u
0,
#145000
b10000000001 0
b10000000001 A
b10000000001 ^
b10000000001 %
b10000000001 <
b10000000001 _
b10000000001 c
b10000000001 p
b101 *
b101 2
b101 l
b11 @
b11 B
b11 L
b11 Q
b101 $
b101 ?
b101 D
b101 Y
b100000 T
b100000 F
b100000 N
b1110 i
b1010 (
b1010 7
b1010 C
b1010 j
b1 g
b1000000000100001101011100010011 &
b1000000000100001101011100010011 5
b1000000000100001101011100010011 G
b1000000000100001101011100010011 R
b1000000000100001101011100010011 \
b1000000000100001101011100010011 o
b111100 :
b111100 d
b111100 e
b111100 a
b111000 "
b111000 8
b111000 ]
b111000 b
b111000 f
1,
#146000
b1101 .
b100000 y
#150000
b100000 r
b1 w
b1110 v
b1000000000100001101011100010011 s
b111000 u
0,
#155000
0/
b1010 0
b1010 A
b1010 ^
b1 K
b1 P
b1 V
0>
b1 %
b1 <
b1 _
b1 c
b1 p
b1 *
b1 2
b1 l
b1011 @
b1011 B
b1011 L
b1011 Q
b1 $
b1 ?
b1 D
b1 Y
b0 T
b10 U
b110011 S
b110011 I
b110011 O
b0 F
b0 N
b10 E
b10 M
b1111 i
b101 (
b101 7
b101 C
b101 j
b10 g
b100010010011110110011 &
b100010010011110110011 5
b100010010011110110011 G
b100010010011110110011 R
b100010010011110110011 \
b100010010011110110011 o
b1000000 :
b1000000 d
b1000000 e
b1000000 a
b111100 "
b111100 8
b111100 ]
b111100 b
b111100 f
1,
#156000
b1110 .
b100000 y
#160000
b0 r
b10 q
b10 w
b1111 v
b110011 t
b100010010011110110011 s
b111100 u
0,
#165000
b10 %
b10 <
b10 _
b10 c
b10 p
b0 *
b0 2
b0 l
b1010 @
b1010 B
b1010 L
b1010 Q
b101 0
b101 A
b101 ^
1/
b0 $
b0 ?
b0 D
b0 Y
b11 U
b11 E
b11 M
b10000 i
b101 )
b101 6
b101 Z
b101 `
b101 k
b10 h
b1010 (
b1010 7
b1010 C
b1010 j
b1 g
b1000001011100000110011 &
b1000001011100000110011 5
b1000001011100000110011 G
b1000001011100000110011 R
b1000001011100000110011 \
b1000001011100000110011 o
b1000100 :
b1000100 d
b1000100 e
b1000100 a
b1000000 "
b1000000 8
b1000000 ]
b1000000 b
b1000000 f
1,
#166000
b1111 .
b100000 y
#170000
b11 q
b10 x
b1 w
b10000 v
b1000001011100000110011 s
b1000000 u
0,
#175000
b1 *
b1 2
b1 l
0/
b1 $
b1 ?
b1 D
b1 Y
b10 K
b10 P
b10 V
1>
b1111 %
b1111 <
b1111 _
b1111 c
b1111 p
b1011 @
b1011 B
b1011 L
b1011 Q
b1111 0
b1111 A
b1111 ^
b10 U
b10011 S
b10011 I
b10011 O
b10 E
b10 M
b10001 i
b1 )
b1 6
b1 Z
b1 `
b1 k
b1111 h
b111100001010100010010011 &
b111100001010100010010011 5
b111100001010100010010011 G
b111100001010100010010011 R
b111100001010100010010011 \
b111100001010100010010011 o
b1001000 :
b1001000 d
b1001000 e
b1001000 a
b1000100 "
b1000100 8
b1000100 ]
b1000100 b
b1000100 f
1,
#176000
b10000 .
b100000 y
#180000
b10 q
b1111 x
b10001 v
b10011 t
b111100001010100010010011 s
b1000100 u
0,
#185000
b0 *
b0 2
b0 l
1/
b0 $
b0 ?
b0 D
b0 Y
b11 0
b11 A
b11 ^
b11 %
b11 <
b11 _
b11 c
b11 p
b1010 @
b1010 B
b1010 L
b1010 Q
b11 U
b11 E
b11 M
b10010 i
b1111 )
b1111 6
b1111 Z
b1111 `
b1111 k
b11 h
b101 (
b101 7
b101 C
b101 j
b10 g
b1100010011100100010011 &
b1100010011100100010011 5
b1100010011100100010011 G
b1100010011100100010011 R
b1100010011100100010011 \
b1100010011100100010011 o
b1001100 :
b1001100 d
b1001100 e
b1001100 a
b1001000 "
b1001000 8
b1001000 ]
b1001000 b
b1001000 f
1,
#186000
b10001 .
b100000 y
#190000
b11 q
b11 x
b10 w
b10010 v
b1100010011100100010011 s
b1001000 u
0,
#195000
b1000000000000 0
b1000000000000 A
b1000000000000 ^
b100 K
b100 P
b100 V
b11 +
b11 1
b11 H
b11 X
b11 =
b11 J
b11 W
b11 n
b1000000000000 %
b1000000000000 <
b1000000000000 _
b1000000000000 c
b1000000000000 p
b1000000000000 *
b1000000000000 2
b1000000000000 l
b0 @
b0 B
b0 L
b0 Q
1/
b0 $
b0 ?
b0 D
b0 Y
b1 U
b110111 S
b110111 I
b110111 O
b1 E
b1 M
b10011 i
b0 )
b0 6
b0 Z
b0 `
b0 k
b0 h
b0 (
b0 7
b0 C
b0 j
b0 g
b1100110110111 &
b1100110110111 5
b1100110110111 G
b1100110110111 R
b1100110110111 \
b1100110110111 o
b1010000 :
b1010000 d
b1010000 e
b1010000 a
b1001100 "
b1001100 8
b1001100 ]
b1001100 b
b1001100 f
1,
#196000
b10010 .
b100000 y
#200000
b1 q
b0 x
b0 w
b10011 v
b110111 t
b1100110110111 s
b1001100 u
0,
#205000
bx *
bx 2
bx l
0/
b1100100 $
b1100100 ?
b1100100 D
b1100100 Y
b100 @
b100 B
b100 L
b100 Q
b1100100 0
b1100100 A
b1100100 ^
b0 K
b0 P
b0 V
b1 +
b1 1
b1 H
b1 X
1!
1;
b1 =
b1 J
b1 W
b1 n
0#
03
b1100100 %
b1100100 <
b1100100 _
b1100100 c
b1100100 p
b11 T
b10 U
b100011 S
b100011 I
b100011 O
b11 F
b11 N
b10 E
b10 M
b100 i
b1111 )
b1111 6
b1111 Z
b1111 `
b1111 k
b100 h
b110010000000010001000100011 &
b110010000000010001000100011 5
b110010000000010001000100011 G
b110010000000010001000100011 R
b110010000000010001000100011 \
b110010000000010001000100011 o
b1010100 :
b1010100 d
b1010100 e
b1010100 a
b1010000 "
b1010000 8
b1010000 ]
b1010000 b
b1010000 f
1,
#206000
b10011 .
#210000
b11 r
b10 q
b100 x
b100 v
b100011 t
b110010000000010001000100011 s
b1010000 u
0,
#215000
b1101000 $
b1101000 ?
b1101000 D
b1101000 Y
b1101000 0
b1101000 A
b1101000 ^
b1101000 %
b1101000 <
b1101000 _
b1101000 c
b1101000 p
bx *
bx 2
bx l
b1000 i
b101 )
b101 6
b101 Z
b101 `
b101 k
b101 h
b110010100000010010000100011 &
b110010100000010010000100011 5
b110010100000010010000100011 G
b110010100000010010000100011 R
b110010100000010010000100011 \
b110010100000010010000100011 o
bx '
bx 4
bx [
b1011000 :
b1011000 d
b1011000 e
b1011000 a
b1010100 "
b1010100 8
b1010100 ]
b1010100 b
b1010100 f
1,
#216000
b10100 .
#220000
b101 x
b1000 v
b110010100000010010000100011 s
b1010100 u
0,
#225000
b1100100 $
b1100100 ?
b1100100 D
b1100100 Y
b1100100 0
b1100100 A
b1100100 ^
0!
0;
b0 =
b0 J
b0 W
b0 n
1#
13
b1100100 %
b1100100 <
b1100100 _
b1100100 c
b1100100 p
b11 S
b11 I
b11 O
b10100 i
b1111 )
b1111 6
b1111 Z
b1111 `
b1111 k
b100 h
b1111 *
b1111 2
b1111 l
b110010000000010101000000011 &
b110010000000010101000000011 5
b110010000000010101000000011 G
b110010000000010101000000011 R
b110010000000010101000000011 \
b110010000000010101000000011 o
b1011100 :
b1011100 d
b1011100 e
b1111 '
b1111 4
b1111 [
b1011100 a
b1011000 "
b1011000 8
b1011000 ]
b1011000 b
b1011000 f
1,
#226000
b10101 .
b100000 y
#230000
b100 x
b10100 v
b11 t
b110010000000010101000000011 s
b1011000 u
0,
#235000
b101 *
b101 2
b101 l
b101 '
b101 4
b101 [
b1101000 $
b1101000 ?
b1101000 D
b1101000 Y
b1101000 0
b1101000 A
b1101000 ^
b1101000 %
b1101000 <
b1101000 _
b1101000 c
b1101000 p
b10101 i
b1000 h
b110100000000010101010000011 &
b110100000000010101010000011 5
b110100000000010101010000011 G
b110100000000010101010000011 R
b110100000000010101010000011 \
b110100000000010101010000011 o
b1100000 :
b1100000 d
b1100000 e
b1100000 a
b1011100 "
b1011100 8
b1011100 ]
b1011100 b
b1011100 f
1,
#236000
b10110 .
b100000 y
#240000
b1000 x
b10101 v
b110100000000010101010000011 s
b1011100 u
0,
#245000
19
1/
b1001 @
b1001 B
b1001 L
b1001 Q
b1111 0
b1111 A
b1111 ^
b11 K
b11 P
b11 V
b0 +
b0 1
b0 H
b0 X
0>
b10 =
b10 J
b10 W
b10 n
0#
03
b1100 %
b1100 <
b1100 _
b1100 c
b1100 p
b0 *
b0 2
b0 l
bx '
bx 4
bx [
b0 $
b0 ?
b0 D
b0 Y
b0 T
b0 U
b1100011 S
b1100011 I
b1100011 O
b0 F
b0 N
b0 E
b0 M
b1100 i
b100 h
b1111 (
b1111 7
b1111 C
b1111 j
b10100 g
b10010100000011001100011 &
b10010100000011001100011 5
b10010100000011001100011 G
b10010100000011001100011 R
b10010100000011001100011 \
b10010100000011001100011 o
b1101100 :
b1101100 d
b1101100 e
b1100100 a
b1100000 "
b1100000 8
b1100000 ]
b1100000 b
b1100000 f
1,
#246000
b10111 .
#250000
b0 r
b0 q
b100 x
b10100 w
b1100 v
b1100011 t
b10010100000011001100011 s
b1100000 u
0,
#255000
b100 @
b100 B
b100 L
b100 Q
09
b10 K
b10 P
b10 V
1>
b0 =
b0 J
b0 W
b0 n
1#
13
b101010 %
b101010 <
b101010 _
b101010 c
b101010 p
b101010 *
b101010 2
b101010 l
b101010 0
b101010 A
b101010 ^
0/
b101010 $
b101010 ?
b101010 D
b101010 Y
b1 T
b10011 S
b10011 I
b10011 O
b1 F
b1 N
b10110 i
b1010 )
b1010 6
b1010 Z
b1010 `
b1010 k
b1010 h
b0 (
b0 7
b0 C
b0 j
b0 g
b10101000000000101100010011 &
b10101000000000101100010011 5
b10101000000000101100010011 G
b10101000000000101100010011 R
b10101000000000101100010011 \
b10101000000000101100010011 o
b1110000 :
b1110000 d
b1110000 e
b1110000 a
b1101100 "
b1101100 8
b1101100 ]
b1101100 b
b1101100 f
1,
#256000
b11000 .
b100000 y
#260000
b1 r
b1010 x
b0 w
b10110 v
b10011 t
b10101000000000101100010011 s
b1101100 u
0,
#265000
b1110100 *
b1110100 2
b1110100 l
1/
b0 $
b0 ?
b0 D
b0 Y
b0 @
b0 B
b0 L
b0 Q
b11000 0
b11000 A
b11000 ^
19
b100 K
b100 P
b100 V
b10 +
b10 1
b10 H
b10 X
b100 =
b100 J
b100 W
b100 n
b11000 %
b11000 <
b11000 _
b11000 c
b11000 p
b0 T
b1101111 S
b1101111 I
b1101111 O
b0 F
b0 N
b10111 i
b0 )
b0 6
b0 Z
b0 `
b0 k
b11000 h
b1100000000000101111101111 &
b1100000000000101111101111 5
b1100000000000101111101111 G
b1100000000000101111101111 R
b1100000000000101111101111 \
b1100000000000101111101111 o
b10001000 :
b10001000 d
b10001000 e
b1110100 a
b1110000 "
b1110000 8
b1110000 ]
b1110000 b
b1110000 f
1,
#266000
b11001 .
b100000 y
#270000
b0 r
b11000 x
b10111 v
b1101111 t
b1100000000000101111101111 s
b1110000 u
0,
#275000
0/
b11001000 $
b11001000 ?
b11001000 D
b11001000 Y
b100 @
b100 B
b100 L
b100 Q
b11001000 0
b11001000 A
b11001000 ^
09
b10 K
b10 P
b10 V
b0 +
b0 1
b0 H
b0 X
b0 =
b0 J
b0 W
b0 n
b11001000 %
b11001000 <
b11001000 _
b11001000 c
b11001000 p
b110 T
b10011 S
b10011 I
b10011 O
b110 F
b110 N
b11001 i
b1111 )
b1111 6
b1111 Z
b1111 `
b1111 k
b1000 h
b11001000 *
b11001000 2
b11001000 l
b1100100000000000110010010011 &
b1100100000000000110010010011 5
b1100100000000000110010010011 G
b1100100000000000110010010011 R
b1100100000000000110010010011 \
b1100100000000000110010010011 o
b10001100 :
b10001100 d
b10001100 e
b10001100 a
b10001000 "
b10001000 8
b10001000 ]
b10001000 b
b10001000 f
1,
#276000
b11010 .
b100000 y
#280000
b110 r
b1000 x
b11001 v
b10011 t
b1100100000000000110010010011 s
b10001000 u
0,
#285000
bx 0
bx A
bx ^
0>
0#
03
bx %
bx <
bx _
bx c
bx p
bx *
bx 2
bx l
b0 @
b0 B
b0 L
b0 Q
x/
bx $
bx ?
bx D
bx Y
bx T
bx U
bx S
bx I
bx O
bx F
bx N
bx E
bx M
bx i
bx )
bx 6
bx Z
bx `
bx k
bx h
bx (
bx 7
bx C
bx j
bx g
bx &
bx 5
bx G
bx R
bx \
bx o
b10010000 :
b10010000 d
b10010000 e
b10010000 a
b10001100 "
b10001100 8
b10001100 ]
b10001100 b
b10001100 f
1,
#286000
b100000 y
b11011 .
